0	39.185766198	39.872998905
0.3	39.2040773037	39.872998905
0.6	39.1796624961	39.872998905
0.9	39.2132328566	39.872998905
1.2	38.7707144688	39.872998905
1.5	39.2040773037	39.872998905
1.8	39.2132328566	39.872998905
2.1	38.5845515609	39.872998905
2.4	39.2132328566	39.872998905
2.7	39.2162847075	39.872998905
3	39.185766198	39.872998905
3.3	39.2162847075	39.872998905
3.6	38.7768181707	39.872998905
3.9	39.2101810056	39.872998905
4.2	39.2223884094	39.872998905
4.5	38.5906552628	39.872998905
4.8	39.2162847075	39.872998905
5.1	39.2223884094	39.872998905
5.4	39.1521958376	39.872998905
5.7	39.1338847319	39.872998905
6	38.6822107913	39.872998905
6.3	39.1216773281	40.1859328401
6.6	39.12778103	39.9512323888
6.9	38.5448774985	40.1859328401
7.2	39.2223884094	40.1859328401
7.5	39.2254402604	40.2641663239
7.8	39.1949217509	40.2641663239
8.1	39.2254402604	40.2678917279
8.4	38.7890255745	40.2678917279
8.7	39.2193365585	40.2678917279
9	39.2254402604	40.2678917279
9.3	38.6089663685	40.2678917279
9.6	39.1399884338	40.2678917279
9.9	39.1399884338	40.2678917279
10.2	39.1033662224	40.2678917279
10.5	39.1338847319	40.2678917279
10.8	38.7035737479	40.2678917279
11.1	39.1308328809	40.2678917279
11.4	39.1369365828	40.2678917279
11.7	38.5113071381	40.2678917279
12	39.1338847319	40.2678917279
12.3	39.1338847319	40.2678917279
12.6	39.1033662224	40.2678917279
12.9	39.1338847319	40.2678917279
13.2	38.7035737479	40.2678917279
13.5	39.124729179	40.2678917279
13.8	39.1338847319	40.2678917279
14.1	38.6150700704	40.2678917279
14.4	39.2315439623	40.1300517803
14.7	39.2315439623	40.1784820322
15	39.3017365341	39.876724309
15.3	39.3292031927	39.872998905
15.6	38.8927885068	40.1300517803
15.9	39.3200476398	39.9512323888
16.2	39.3230994908	39.876724309
16.5	38.7127293008	40.2604409199
16.8	39.3230994908	39.9512323888
17.1	39.3230994908	39.880449713
17.4	39.3017365341	40.1300517803
17.7	39.3230994908	39.876724309
18	38.8927885068	39.872998905
18.3	39.3169957889	39.872998905
18.6	39.3200476398	39.872998905
18.9	38.7524033631	39.872998905
19.2	39.4177068702	39.872998905
19.5	39.4207587212	39.9586831967
19.8	39.3932920626	39.876724309
20.1	39.4177068702	39.876724309
20.4	38.9843440353	39.876724309
20.7	39.4085513174	39.876724309
21	39.4116031683	39.876724309
21.3	38.8012329783	39.872998905
21.6	39.4116031683	39.872998905
21.9	39.4116031683	39.872998905
22.2	39.3902402117	39.872998905
22.5	39.4116031683	39.872998905
22.8	38.9812921844	39.872998905
23.1	39.4024476155	40.2604409199
23.4	39.4116031683	39.8841751169
23.7	38.7951292764	39.876724309
24	39.4054994664	39.872998905
24.3	39.4054994664	39.9177037529
24.6	39.3841365098	39.880449713
24.9	39.4054994664	39.872998905
25.2	38.9751884825	40.1971090521
25.5	39.3993957645	39.876724309
25.8	39.4024476155	39.9512323888
26.1	38.8866848049	39.876724309
26.4	39.5001068459	39.9586831967
26.7	39.5031586968	39.876724309
27	39.5764031196	39.876724309
27.3	39.5977660763	40.2604409199
27.6	39.1613513904	40.1859328401
27.9	39.5886105234	40.219461476
28.2	39.5916623744	40.2604409199
28.5	38.9751884825	40.2678917279
28.8	39.5886105234	40.2678917279
29.1	39.5916623744	40.2678917279
29.4	39.5764031196	40.2678917279
29.7	39.5916623744	40.2678917279
30	39.1582995395	40.2678917279
30.3	39.5855586725	40.2678917279
30.6	39.5916623744	40.2678917279
30.9	38.9721366315	40.2678917279
31.2	39.5886105234	40.2678917279
31.5	39.5916623744	40.2678917279
31.8	39.5702994177	40.2678917279
32.1	39.5886105234	40.2678917279
32.4	39.1582995395	40.2678917279
32.7	39.5855586725	40.2678917279
33	39.5916623744	40.2678917279
33.3	38.9721366315	40.2678917279
33.6	39.5886105234	40.2678917279
33.9	39.5916623744	40.2678917279
34.2	39.5702994177	40.2678917279
34.5	39.5886105234	40.2678917279
34.8	39.1582995395	40.2678917279
35.1	39.5855586725	40.2716171319
35.4	39.5916623744	40.2716171319
35.7	38.9721366315	40.2716171319
36	39.5886105234	40.2716171319
36.3	39.5916623744	40.2716171319
36.6	39.5702994177	40.2716171319
36.9	39.5916623744	40.2716171319
37.2	39.1582995395	40.2716171319
37.5	39.6862697538	40.2716171319
37.8	39.6954253067	40.2716171319
38.1	39.0728477129	40.2716171319
38.4	39.735099369	40.2716171319
38.7	39.7930845371	40.2716171319
39	39.7717215804	40.3274981918
39.3	39.7930845371	40.5659240471
39.6	39.3566698512	40.2827933439
39.9	39.7900326861	40.2790679399
40.2	39.796136388	40.3237727878
40.5	39.1705069433	40.6627845509
40.8	39.7930845371	40.6665099548
41.1	39.796136388	40.6665099548
41.4	39.8113956428	40.6665099548
41.7	39.8998993203	40.3461252117
42	39.4604327835	40.6627845509
42.3	39.8907437675	40.6441575309
42.6	39.8998993203	40.3237727878
42.9	39.2773217265	40.6665099548
43.2	39.8998993203	40.6665099548
43.5	39.9029511713	40.618079703
43.8	39.8724326618	40.595727279
44.1	39.9029511713	40.5845510671
44.4	39.4634846345	40.4131824835
44.7	39.8998993203	40.6665099548
45	39.9090548732	40.6665099548
45.3	39.2773217265	40.6665099548
45.6	39.8998993203	40.6665099548
45.9	39.9090548732	40.6665099548
46.2	39.8785363637	40.6665099548
46.5	39.9090548732	40.6665099548
46.8	39.4726401873	40.618079703
47.1	39.8998993203	40.3237727878
47.4	39.9090548732	40.5212191992
47.7	39.2834254284	40.6590591469
48	39.9090548732	40.6665099548
48.3	39.9121067241	40.6665099548
48.6	39.8815882146	40.6665099548
48.9	39.9090548732	40.6665099548
49.2	39.4787438892	40.6665099548
49.5	39.9975585507	40.6665099548
49.8	40.0097659545	40.6665099548
50.1	39.3902402117	40.6665099548
50.4	40.0097659545	40.6665099548
50.7	40.0128178055	40.6665099548
51	39.9884029979	40.6702353588
51.3	40.0097659545	40.6702353588
51.6	39.67406235	40.6702353588
51.9	40.104373334	40.6702353588
52.2	40.1135288868	40.6702353588
52.5	39.4878994421	40.6702353588
52.8	40.1135288868	40.6702353588
53.1	40.1135288868	40.6702353588
53.4	40.0830103773	40.6702353588
53.7	40.1135288868	40.6702353588
54	39.677114201	40.6702353588
54.3	40.104373334	40.6702353588
54.6	40.1074251849	40.6702353588
54.9	39.4878994421	40.6702353588
55.2	40.1074251849	40.6702353588
55.5	40.1989807134	40.6702353588
55.8	40.1806696077	40.6702353588
56.1	40.2050844153	40.6702353588
56.4	39.7717215804	40.6702353588
56.7	40.1989807134	40.6702353588
57	40.2020325644	40.6702353588
57.3	39.5886105234	40.6702353588
57.6	40.1959288625	40.6702353588
57.9	40.2020325644	40.6702353588
58.2	40.1806696077	40.6702353588
58.5	40.2020325644	40.6702353588
58.8	39.7717215804	40.6702353588
59.1	40.1928770115	40.6702353588
59.4	40.2294992229	40.6702353588
59.7	39.6832179029	40.6702353588
60	40.2905362419	40.6702353588
60.3	40.2905362419	40.6702353588
60.6	40.2691732853	40.6702353588
60.9	40.2935880929	40.6702353588
61.2	39.860225258	40.6702353588
61.5	40.3790399195	40.6702353588
61.8	40.3881954723	40.6702353588
62.1	39.7747734314	40.6702353588
62.4	40.3881954723	40.6702353588
62.7	40.3881954723	40.6702353588
63	40.3607288138	40.99807091
63.3	40.3881954723	40.7149402067
63.6	39.9517807865	40.6814115708
63.9	40.3790399195	40.7521942466
64.2	40.3820917704	40.6776861668
64.5	39.7717215804	40.6739607628
64.8	40.3820917704	40.7149402067
65.1	40.3820917704	41.0576773738
65.4	40.3973510252	40.7484688426
65.7	40.4766991499	41.0539519698
66	40.0494400169	41.0614027778
66.3	40.4736472989	41.0614027778
66.6	40.4797510008	41.0614027778
66.9	39.8632771089	41.0614027778
67.2	40.4766991499	41.0614027778
67.5	40.4797510008	41.0614027778
67.8	40.4583880442	41.0614027778
68.1	40.4766991499	41.0614027778
68.4	40.043336315	41.0614027778
68.7	40.4736472989	41.0614027778
69	40.4766991499	41.0614027778
69.3	39.8632771089	41.0614027778
69.6	40.4766991499	41.0614027778
69.9	40.4766991499	41.0614027778
70.2	40.4492324913	41.0614027778
70.5	40.4766991499	41.0614027778
70.8	40.040284464	41.0614027778
71.1	40.467543597	41.0614027778
71.4	40.4766991499	41.0614027778
71.7	39.8510697051	41.0614027778
72	40.470595448	41.0614027778
72.3	40.4736472989	41.0651281818
72.6	40.4431287894	41.0651281818
72.9	40.470595448	41.0651281818
73.2	40.0341807621	41.0651281818
73.5	40.4644917461	41.0651281818
73.8	40.470595448	41.0651281818
74.1	39.8449660032	41.0651281818
74.4	40.5011139575	41.0651281818
74.7	40.5652028274	41.0651281818
75	40.5468917217	41.0651281818
75.3	40.5652028274	41.0651281818
75.6	40.1287881416	41.0651281818
75.9	40.5560472746	41.0651281818
76.2	40.5652028274	41.0651281818
76.5	39.9426252336	41.0651281818
76.8	40.5652028274	41.0651281818
77.1	40.5682546784	41.0651281818
77.4	40.6018250388	41.0651281818
77.7	40.711691673	41.0651281818
78	40.2783288381	41.0688535858
78.3	40.7086398221	40.8118007105
78.6	40.7177953749	40.7484688426
78.9	40.0921659302	41.0539519698
79.2	40.711691673	40.6814115708
79.5	40.7177953749	40.99807091
79.8	40.6964324183	40.9235628302
80.1	40.7177953749	40.6776861668
80.4	40.2813806891	40.9235628302
80.7	40.714743524	40.6776861668
81	40.7208472259	41.0539519698
81.3	40.0952177811	40.7484688426
81.6	40.7177953749	40.7149402067
81.9	40.7208472259	40.7484688426
82.2	40.6994842692	40.6776861668
82.5	40.7208472259	40.6739607628
82.8	40.287484391	40.6739607628
83.1	40.714743524	40.6739607628
83.4	40.7208472259	40.6739607628
83.7	40.0952177811	40.6739607628
84	40.7208472259	40.6739607628
84.3	40.7238990768	40.6739607628
84.6	40.6994842692	40.6739607628
84.9	40.7269509278	40.6739607628
85.2	40.2905362419	40.6739607628
85.5	40.8154546053	40.6739607628
85.8	40.8246101582	40.6739607628
86.1	40.1989807134	40.6739607628
86.4	40.8246101582	40.6739607628
86.7	40.8276620091	40.6739607628
87	40.7971434996	40.6739607628
87.3	40.8246101582	40.6739607628
87.6	40.3881954723	40.6739607628
87.9	40.8215583072	40.6739607628
88.2	40.8276620091	40.6739607628
88.5	40.2020325644	40.6739607628
88.8	40.8246101582	40.6739607628
89.1	40.833765711	40.6739607628
89.4	40.8032472015	40.6739607628
89.7	40.8276620091	40.6739607628
90	40.3881954723	40.6739607628
90.3	40.8246101582	40.6739607628
90.6	40.833765711	40.6739607628
90.9	40.2081362663	40.6739607628
91.2	40.8246101582	40.6739607628
91.5	40.833765711	40.6739607628
91.8	40.8032472015	40.6739607628
92.1	40.8276620091	40.6739607628
92.4	40.3942991742	40.6739607628
92.7	40.8246101582	40.6739607628
93	40.833765711	40.6739607628
93.3	40.2081362663	40.6739607628
93.6	40.8246101582	40.6739607628
93.9	40.833765711	40.6739607628
94.2	40.8032472015	40.6739607628
94.5	40.833765711	40.6739607628
94.8	40.3881954723	40.6739607628
95.1	40.8215583072	40.6739607628
95.4	40.833765711	40.6739607628
95.7	40.2020325644	40.6702353588
96	40.8276620091	40.6702353588
96.3	40.8307138601	40.6702353588
96.6	40.8032472015	40.6702353588
96.9	40.833765711	40.6702353588
97.2	40.3881954723	40.6702353588
97.5	40.8215583072	40.6702353588
97.8	40.833765711	40.6702353588
98.1	40.2020325644	40.6702353588
98.4	40.8276620091	40.6702353588
98.7	40.8307138601	40.6702353588
99	40.8032472015	40.6702353588
99.3	40.8276620091	40.6702353588
99.6	40.3881954723	40.6702353588
99.9	40.8215583072	40.6702353588
100.2	40.8276620091	40.6702353588
100.5	40.2020325644	40.6702353588
100.8	40.8246101582	40.6702353588
101.1	40.833765711	40.6702353588
101.4	40.8398694129	40.6702353588
101.7	40.9253212395	40.6702353588
102	40.4919584046	40.6702353588
102.3	40.9192175376	40.6702353588
102.6	40.9253212395	40.6702353588
102.9	40.2569658815	40.6702353588
103.2	40.8246101582	40.6702353588
103.5	40.833765711	40.6702353588
103.8	40.8032472015	40.6702353588
104.1	40.8276620091	40.6702353588
104.4	40.3942991742	40.6702353588
104.7	40.8215583072	40.6702353588
105	40.833765711	40.6702353588
105.3	40.2081362663	40.6702353588
105.6	40.9222693886	40.6702353588
105.9	40.9253212395	40.6702353588
106.2	40.9009064319	40.6702353588
106.5	40.9253212395	40.6702353588
106.8	40.4919584046	40.6702353588
107.1	40.9192175376	40.6702353588
107.4	40.9314249414	40.618079703
107.7	40.3057954967	40.6627845509
108	40.9222693886	40.6665099548
108.3	40.9253212395	40.6665099548
108.6	40.9009064319	40.6665099548
108.9	40.9314249414	40.6665099548
109.2	40.4919584046	40.6702353588
109.5	40.9192175376	40.3796538476
109.8	40.9253212395	40.6627845509
110.1	40.2996917948	40.6665099548
110.4	40.9649953019	40.6665099548
110.7	41.0290841718	40.4131824835
111	41.0016175133	40.6665099548
111.3	41.0290841718	40.5845510671
111.6	40.589617635	40.6665099548
111.9	41.019928619	40.6702353588
112.2	41.0290841718	40.6702353588
112.5	40.4034547271	40.6702353588
112.8	41.0260323209	40.6702353588
113.1	41.0321360228	40.6702353588
113.4	41.0016175133	40.618079703
113.7	41.0321360228	40.595727279
114	40.589617635	40.6590591469
114.3	41.0260323209	40.6665099548
114.6	41.0321360228	40.6665099548
114.9	40.406506578	40.6665099548
115.2	41.0290841718	40.2827933439
115.5	41.0321360228	40.6627845509
115.8	41.0016175133	40.3498506157
116.1	41.0321360228	40.4131824835
116.4	40.592669486	40.6627845509
116.7	41.0260323209	40.4131824835
117	41.0321360228	40.5845510671
117.3	40.4126102799	40.621805107
117.6	41.0290841718	40.6627845509
117.9	41.0321360228	40.6665099548
118.2	41.0016175133	40.5845510671
118.5	41.0321360228	40.5212191992
118.8	40.5987731879	40.2790679399
119.1	41.0260323209	40.2753425359
119.4	41.0382397247	40.2753425359
119.7	40.4126102799	40.595727279
120	41.0321360228	40.5845510671
120.3	41.0351878737	40.4057316755
120.6	41.0016175133	40.5845510671
120.9	41.0382397247	40.6627845509
121.2	40.5987731879	40.3461252117
121.5	41.0290841718	40.6627845509
121.8	41.0382397247	40.6665099548
122.1	40.4126102799	40.3461252117
122.4	41.0382397247	40.3610268277
122.7	41.0382397247	40.599452683
123	41.0077212152	40.3237727878
123.3	41.0382397247	40.3461252117
123.6	40.5987731879	40.6627845509
123.9	41.0290841718	40.5845510671
124.2	41.0382397247	40.618079703
124.5	40.4126102799	40.595727279
124.8	41.0382397247	40.4355349075
125.1	41.0382397247	40.618079703
125.4	41.0077212152	40.6590591469
125.7	41.0382397247	40.4131824835
126	40.5987731879	40.4131824835
126.3	41.0290841718	40.3498506157
126.6	41.0382397247	40.3237727878
126.9	40.4126102799	40.2827933439
127.2	41.0382397247	40.2753425359
127.5	41.0382397247	40.5249446032
127.8	41.0107730661	40.6590591469
128.1	41.0382397247	40.3498506157
128.4	40.6018250388	40.595727279
128.7	41.0290841718	40.595727279
129	40.9497360471	40.3498506157
129.3	40.3180029005	40.3498506157
129.6	40.9344767924	40.2790679399
129.9	40.9405804943	40.4131824835
130.2	40.9131138357	40.4206332915
130.5	40.9405804943	40.3461252117
130.8	40.5011139575	40.2827933439
131.1	40.9283730905	40.2753425359
131.4	40.9344767924	40.3237727878
131.7	40.3180029005	40.2827933439
132	40.9344767924	40.5212191992
132.3	40.9344767924	40.3237727878
132.6	40.9131138357	40.2976949598
132.9	40.9405804943	40.595727279
133.2	40.5011139575	40.2790679399
133.5	40.9283730905	40.2753425359
133.8	40.9344767924	40.2753425359
134.1	40.3180029005	40.2753425359
134.4	40.9405804943	40.2753425359
134.7	40.9405804943	40.2753425359
135	40.9100619848	40.3237727878
135.3	40.9344767924	40.2827933439
135.6	40.5011139575	40.2753425359
135.9	40.9314249414	40.2753425359
136.2	40.9344767924	40.2753425359
136.5	40.3180029005	40.2753425359
136.8	40.9344767924	40.2753425359
137.1	40.9375286433	40.2753425359
137.4	40.9131138357	40.2753425359
137.7	40.9344767924	40.2753425359
138	40.5011139575	40.2753425359
138.3	40.9314249414	40.2753425359
138.6	40.9344767924	40.2753425359
138.9	40.3180029005	40.2753425359
139.2	40.9344767924	40.2753425359
139.5	41.0260323209	40.2753425359
139.8	41.0077212152	40.2753425359
140.1	41.0382397247	40.2716171319
140.4	40.5987731879	40.2716171319
140.7	41.0290841718	40.2716171319
141	41.0382397247	40.2716171319
141.3	40.4126102799	40.2716171319
141.6	41.0321360228	40.2716171319
141.9	41.0077212152	40.2716171319
142.2	40.9100619848	40.2716171319
142.5	40.9405804943	40.2716171319
142.8	40.5011139575	40.2716171319
143.1	40.9283730905	40.2716171319
143.4	40.9680471528	40.2716171319
143.7	40.4126102799	40.2716171319
144	41.0382397247	40.2716171319
144.3	41.0382397247	40.2716171319
144.6	41.0077212152	40.2716171319
144.9	41.0382397247	40.2716171319
145.2	40.6018250388	40.2716171319
145.5	41.0290841718	40.2716171319
145.8	41.0382397247	40.2716171319
146.1	40.4126102799	40.2716171319
146.4	41.0382397247	40.2716171319
146.7	41.0382397247	40.2716171319
147	41.0077212152	40.2716171319
147.3	41.0382397247	40.2716171319
147.6	40.5987731879	40.2716171319
147.9	41.0290841718	40.2716171319
148.2	41.0382397247	40.2716171319
148.5	40.4126102799	40.2716171319
148.8	41.0382397247	40.2716171319
149.1	41.0382397247	40.2716171319
149.4	41.0473952775	40.2716171319
149.7	41.1297952532	40.2716171319
150	40.6018250388	40.2716171319
150.3	41.0290841718	40.2716171319
150.6	41.0382397247	40.2716171319
150.9	40.4126102799	40.2716171319
151.2	41.0321360228	40.2716171319
151.5	41.0382397247	40.2716171319
151.8	41.0077212152	40.2716171319
152.1	41.0382397247	40.2716171319
152.4	40.6018250388	40.2716171319
152.7	41.0290841718	40.2716171319
153	41.0382397247	40.2716171319
153.3	40.4156621309	40.2716171319
153.6	41.0321360228	40.2716171319
153.9	41.0382397247	40.2716171319
154.2	41.0077212152	40.2716171319
154.5	41.0321360228	40.2716171319
154.8	40.5987731879	40.2716171319
155.1	41.0260323209	40.2716171319
155.4	41.0382397247	40.2716171319
155.7	40.4126102799	40.2716171319
156	41.0321360228	40.2716171319
156.3	41.0351878737	40.2716171319
156.6	41.0016175133	40.2716171319
156.9	41.0382397247	40.2716171319
157.2	40.592669486	40.2716171319
157.5	41.0260323209	40.2716171319
157.8	41.0321360228	40.2716171319
158.1	40.3088473476	40.2716171319
158.4	40.9314249414	40.2716171319
158.7	40.9344767924	40.2716171319
159	40.9100619848	40.2716171319
159.3	40.9314249414	40.2716171319
159.6	40.589617635	40.2716171319
159.9	41.019928619	40.2716171319
160.2	41.0290841718	40.2716171319
160.5	40.406506578	40.2716171319
160.8	41.0260323209	40.2716171319
161.1	41.0321360228	40.2716171319
161.4	41.0016175133	40.2716171319
161.7	41.0290841718	40.2716171319
162	40.589617635	40.2716171319
162.3	41.019928619	40.2716171319
162.6	41.0290841718	40.2716171319
162.9	40.4034547271	40.2716171319
163.2	41.0229804699	40.2716171319
163.5	41.0290841718	40.2716171319
163.8	41.0016175133	40.2716171319
164.1	41.0290841718	40.2716171319
164.4	40.5835139331	40.2716171319
164.7	41.016876768	40.2716171319
165	40.9405804943	40.2716171319
165.3	40.3057954967	40.2716171319
165.6	40.9222693886	40.2716171319
165.9	40.9253212395	40.2716171319
166.2	40.9009064319	40.2716171319
166.5	40.9253212395	40.2716171319
166.8	40.4919584046	40.2716171319
167.1	40.9192175376	40.2716171319
167.4	40.9253212395	40.2716171319
167.7	40.2966399438	40.2716171319
168	40.9222693886	40.2716171319
168.3	40.9253212395	40.2716171319
168.6	40.9009064319	40.2716171319
168.9	40.9253212395	40.2716171319
169.2	40.4858547027	40.2716171319
169.5	41.0107730661	40.2716171319
169.8	41.0229804699	40.2716171319
170.1	40.3973510252	40.2716171319
170.4	41.019928619	40.2716171319
170.7	41.0229804699	40.2716171319
171	40.9985656623	40.2716171319
171.3	41.019928619	40.2716171319
171.6	40.5804620822	40.2716171319
171.9	41.0107730661	40.2716171319
172.2	41.019928619	40.2716171319
172.5	40.3942991742	40.2716171319
172.8	41.019928619	40.2716171319
173.1	41.0229804699	40.2716171319
173.4	40.9985656623	40.2716171319
173.7	41.019928619	40.2716171319
174	40.4858547027	40.2716171319
174.3	40.9192175376	40.2716171319
174.6	40.9253212395	40.2716171319
174.9	40.2966399438	40.2716171319
175.2	40.9222693886	40.2716171319
175.5	40.9253212395	40.2716171319
175.8	40.9009064319	40.2716171319
176.1	40.9222693886	40.2716171319
176.4	40.4858547027	40.2716171319
176.7	40.9131138357	40.2716171319
177	40.9222693886	40.2716171319
177.3	40.2905362419	40.2716171319
177.6	40.9222693886	40.2716171319
177.9	40.9222693886	40.2716171319
178.2	40.89480273	40.2716171319
178.5	40.9222693886	40.2716171319
178.8	40.4828028518	40.2716171319
179.1	40.9131138357	40.2716171319
179.4	40.9222693886	40.2716171319
179.7	40.2905362419	40.2716171319
180	40.9222693886	40.2716171319
180.3	40.9222693886	40.2716171319
180.6	40.89480273	40.2716171319
180.9	40.9222693886	40.2716171319
181.2	40.4828028518	40.2716171319
181.5	40.9131138357	40.1859328401
181.8	40.9222693886	40.2641663239
182.1	40.2905362419	40.2678917279
182.4	40.9222693886	40.2678917279
182.7	40.9222693886	39.9586831967
183	40.89480273	40.1337771843
183.3	40.9222693886	40.1859328401
183.6	40.4828028518	40.226912284
183.9	40.9131138357	40.2045598601
184.2	40.9222693886	40.1933836481
184.5	40.2905362419	39.9586831967
184.8	40.9161656867	40.1300517803
185.1	40.9222693886	39.880449713
185.4	40.89480273	40.1971090521
185.7	40.9222693886	39.9586831967
186	40.4828028518	39.876724309
186.3	40.9131138357	39.876724309
186.6	40.9222693886	39.876724309
186.9	40.2905362419	39.9586831967
187.2	40.9161656867	39.9586831967
187.5	40.9222693886	39.876724309
187.8	40.89480273	39.876724309
188.1	40.9161656867	39.876724309
188.4	40.4828028518	39.876724309
188.7	40.9131138357	39.876724309
189	40.9222693886	39.876724309
189.3	40.2905362419	39.876724309
189.6	40.9161656867	39.872998905
189.9	40.9222693886	39.872998905
190.2	40.89480273	39.872998905
190.5	40.9222693886	39.872998905
190.8	40.4828028518	39.872998905
191.1	40.9100619848	39.872998905
191.4	40.9222693886	39.872998905
191.7	40.2905362419	39.872998905
192	40.9161656867	39.872998905
192.3	40.9192175376	39.872998905
192.6	40.8917508791	39.872998905
192.9	40.9161656867	39.872998905
193.2	40.4766991499	39.872998905
193.5	40.9100619848	39.872998905
193.8	40.9161656867	39.872998905
194.1	40.2905362419	39.872998905
194.4	40.9161656867	39.872998905
194.7	40.9161656867	39.872998905
195	40.8917508791	39.872998905
195.3	40.9161656867	39.872998905
195.6	40.4766991499	39.872998905
195.9	40.9100619848	39.872998905
196.2	40.9161656867	39.872998905
196.5	40.2905362419	39.872998905
196.8	40.9131138357	39.872998905
197.1	40.9161656867	39.872998905
197.4	40.8917508791	39.872998905
197.7	40.9131138357	39.872998905
198	40.4766991499	39.872998905
198.3	40.9100619848	39.872998905
198.6	40.9161656867	39.872998905
198.9	40.2478103286	39.872998905
199.2	40.8124027544	39.872998905
199.5	40.8185064563	39.872998905
199.8	40.7971434996	39.872998905
200.1	40.8154546053	39.872998905
200.4	40.3759880685	39.872998905
200.7	40.8062990525	39.872998905
201	40.8154546053	39.872998905
201.3	40.1928770115	39.872998905
201.6	40.9100619848	39.872998905
201.9	40.9161656867	39.872998905
202.2	40.8917508791	39.872998905
202.5	40.9161656867	39.872998905
202.8	40.4766991499	39.872998905
203.1	40.9039582829	39.872998905
203.4	40.9161656867	39.872998905
203.7	40.2905362419	39.872998905
204	40.9161656867	39.872998905
204.3	40.9161656867	39.872998905
204.6	40.8917508791	39.872998905
204.9	40.9161656867	39.872998905
205.2	40.4766991499	39.872998905
205.5	40.9039582829	39.872998905
205.8	40.9161656867	39.872998905
206.1	40.2905362419	39.872998905
206.4	40.9161656867	39.872998905
206.7	40.9161656867	39.872998905
207	40.8917508791	39.872998905
207.3	40.9131138357	39.872998905
207.6	40.4766991499	39.872998905
207.9	40.9100619848	39.872998905
208.2	40.9161656867	39.872998905
208.5	40.2905362419	39.872998905
208.8	40.9131138357	39.872998905
209.1	40.8276620091	39.872998905
209.4	40.7971434996	39.872998905
209.7	40.8185064563	39.872998905
210	40.3790399195	39.872998905
210.3	40.8124027544	39.872998905
210.6	40.9131138357	39.872998905
210.9	40.2905362419	39.872998905
211.2	40.9161656867	39.872998905
211.5	40.9222693886	39.872998905
211.8	40.89480273	39.872998905
212.1	40.9161656867	39.872998905
212.4	40.4828028518	39.872998905
212.7	40.9131138357	39.872998905
213	40.9222693886	39.872998905
213.3	40.2905362419	39.872998905
213.6	40.9161656867	39.872998905
213.9	40.9222693886	39.872998905
214.2	40.89480273	39.872998905
214.5	40.9222693886	39.872998905
214.8	40.4828028518	39.872998905
215.1	40.8124027544	39.872998905
215.4	40.8246101582	39.872998905
215.7	40.1989807134	39.872998905
216	40.8185064563	39.9586831967
216.3	40.8215583072	39.876724309
216.6	40.7971434996	39.872998905
216.9	40.8246101582	39.872998905
217.2	40.3851436214	39.872998905
217.5	40.8124027544	39.872998905
217.8	40.8246101582	39.872998905
218.1	40.1989807134	39.872998905
218.4	40.8246101582	39.872998905
218.7	40.8246101582	39.869273501
219	40.7971434996	39.869273501
219.3	40.8246101582	39.869273501
219.6	40.3790399195	39.869273501
219.9	40.8124027544	39.869273501
220.2	40.8246101582	39.869273501
220.5	40.1928770115	39.869273501
220.8	40.8185064563	39.869273501
221.1	40.8246101582	39.869273501
221.4	40.7971434996	39.869273501
221.7	40.8246101582	39.869273501
222	40.3851436214	39.869273501
222.3	40.8154546053	39.869273501
222.6	40.8246101582	39.869273501
222.9	40.1989807134	39.869273501
223.2	40.8185064563	39.869273501
223.5	40.8246101582	39.869273501
223.8	40.7971434996	39.869273501
224.1	40.8185064563	39.869273501
224.4	40.3851436214	39.869273501
224.7	40.8154546053	39.869273501
225	40.8246101582	39.869273501
225.3	40.1989807134	39.869273501
225.6	40.8185064563	39.869273501
225.9	40.8246101582	39.869273501
226.2	40.7971434996	39.869273501
226.5	40.8246101582	39.869273501
226.8	40.3851436214	39.872998905
227.1	40.8124027544	39.872998905
227.4	40.8246101582	39.872998905
227.7	40.1989807134	39.872998905
228	40.8185064563	39.872998905
228.3	40.8215583072	39.872998905
228.6	40.7971434996	39.872998905
228.9	40.8246101582	39.872998905
229.2	40.3790399195	39.872998905
229.5	40.8124027544	39.872998905
229.8	40.8246101582	39.872998905
230.1	40.1928770115	39.872998905
230.4	40.8185064563	39.872998905
230.7	40.8215583072	39.872998905
231	40.7971434996	39.872998905
231.3	40.8185064563	39.872998905
231.6	40.3790399195	39.872998905
231.9	40.8124027544	39.872998905
232.2	40.8185064563	39.872998905
232.5	40.1989807134	39.872998905
232.8	40.8185064563	39.872998905
233.1	40.8246101582	39.872998905
233.4	40.7971434996	39.872998905
233.7	40.8185064563	39.872998905
234	40.3790399195	39.872998905
234.3	40.8124027544	39.872998905
234.6	40.8154546053	39.872998905
234.9	40.1745659058	39.872998905
235.2	40.7910397977	39.872998905
235.5	40.7971434996	39.8208432491
235.8	40.7635731392	39.478106082
236.1	40.7940916487	39.474380678
236.4	40.3546251119	39.474380678
236.7	40.7879879468	39.474380678
237	40.7971434996	39.2843850746
237.3	40.1715140549	39.1428197229
237.6	40.7910397977	39.0943894711
237.9	40.7696768411	39.0906640671
238.2	40.6720176107	39.0906640671
238.5	40.6964324183	39.0906640671
238.8	40.2539140305	39.0906640671
239.1	40.6872768654	39.0869386631
239.4	40.6964324183	39.0869386631
239.7	40.0769066754	39.0869386631
240	40.6903287164	39.0869386631
240.3	40.6964324183	39.0869386631
240.6	40.6720176107	39.0869386631
240.9	40.653706505	39.0869386631
241.2	40.1104770359	39.0869386631
241.5	40.4614398951	39.0869386631
241.8	40.4583880442	39.0869386631
242.1	39.7289956671	39.0869386631
242.4	40.3515732609	39.0869386631
242.7	40.3546251119	39.4073234062
243	40.3241066024	39.0981148751
243.3	40.3515732609	39.0906640671
243.6	39.9090548732	39.0869386631
243.9	40.3424177081	39.0869386631
244.2	40.3515732609	39.0869386631
244.5	39.7289956671	39.0869386631
244.8	40.345469559	39.0869386631
245.1	40.3515732609	39.0869386631
245.4	40.3241066024	39.4594790621
245.7	40.3515732609	39.2322294187
246	39.8174993447	39.4632044661
246.3	40.2447584777	39.4669298701
246.6	40.2539140305	39.4669298701
246.9	39.6313364367	39.5228109299
247.2	40.2478103286	39.8208432491
247.5	40.2508621796	39.478106082
247.8	40.226447372	39.474380678
248.1	40.2508621796	39.474380678
248.4	39.8083437918	39.474380678
248.7	40.2447584777	39.474380678
249	40.2539140305	39.474380678
249.3	39.6313364367	39.474380678
249.6	40.3424177081	39.474380678
249.9	40.3515732609	39.6233968376
250.2	40.3180029005	39.7016303214
250.5	40.34852141	39.481831486
250.8	39.9090548732	39.478106082
251.1	40.3363140062	39.478106082
251.4	40.3790399195	39.474380678
251.7	39.8205511956	39.474380678
252	40.4370250875	39.7314335534
252.3	40.4431287894	39.478106082
252.6	40.4217658328	39.478106082
252.9	40.4431287894	39.474380678
253.2	40.0067141036	39.474380678
253.5	40.531632467	39.474380678
253.8	40.5438398708	39.474380678
254.1	39.9243141279	39.474380678
254.4	40.5987731879	39.474380678
254.7	40.6903287164	39.474380678
255	40.6689657597	39.474380678
255.3	40.6872768654	39.474380678
255.6	40.2478103286	39.1688975509
255.9	40.6811731635	39.135368915
256.2	40.6872768654	39.4259504262
256.5	40.0677511226	39.0943894711
256.8	40.6842250145	39.0906640671
257.1	40.6872768654	39.0906640671
257.4	40.6689657597	39.0869386631
257.7	40.6872768654	39.0869386631
258	40.2478103286	39.0869386631
258.3	40.6811731635	39.0869386631
258.6	40.7818842449	39.0869386631
258.9	40.1715140549	39.0869386631
259.2	40.7849360958	39.0869386631
259.5	40.7879879468	39.0869386631
259.8	40.7635731392	39.0869386631
260.1	40.7879879468	39.0869386631
260.4	40.3515732609	39.0869386631
260.7	40.7696768411	39.0869386631
261	40.7788323939	39.0869386631
261.3	40.162358502	39.0869386631
261.6	40.7818842449	39.0869386631
261.9	40.7818842449	39.0869386631
262.2	40.7544175863	39.0869386631
262.5	40.7788323939	39.0869386631
262.8	40.3363140062	39.0869386631
263.1	40.7635731392	39.0869386631
263.4	40.7788323939	39.0869386631
263.7	40.1562548001	39.0869386631
264	40.7818842449	39.0869386631
264.3	40.7818842449	39.0869386631
264.6	40.7605212882	39.0869386631
264.9	40.7879879468	39.0869386631
265.2	40.3515732609	39.0869386631
265.5	40.775780543	39.0869386631
265.8	40.7879879468	39.0869386631
266.1	40.162358502	39.0869386631
266.4	40.8154546053	39.0869386631
266.7	40.8795434753	39.0869386631
267	40.8520768167	38.7814555359
267.3	40.8764916243	38.7069474561
267.6	40.5377361689	38.7032220521
267.9	40.9680471528	38.7032220521
268.2	40.9772027057	38.7032220521
268.5	40.3546251119	38.7032220521
268.8	40.9772027057	38.7032220521
269.1	40.9772027057	38.7032220521
269.4	40.955839749	38.7032220521
269.7	40.9741508547	38.7032220521
270	40.531632467	38.7032220521
270.3	40.9680471528	38.7032220521
270.6	40.9772027057	38.7032220521
270.9	40.3546251119	38.7032220521
271.2	40.9710990038	38.7032220521
271.5	40.9710990038	38.7032220521
271.8	40.9588916	38.7032220521
272.1	40.9833064076	38.7032220521
272.4	40.5468917217	38.7032220521
272.7	40.9802545566	38.7032220521
273	40.9833064076	38.7032220521
273.3	40.3607288138	38.7032220521
273.6	40.9833064076	38.7032220521
273.9	40.9833064076	38.7032220521
274.2	40.9588916	38.7032220521
274.5	40.9833064076	38.7032220521
274.8	40.5468917217	38.7032220521
275.1	40.9741508547	38.7032220521
275.4	40.9833064076	38.7032220521
275.7	40.3607288138	38.7032220521
276	40.9772027057	38.7032220521
276.3	40.9802545566	38.7032220521
276.6	40.9588916	38.7032220521
276.9	40.9833064076	38.7032220521
277.2	40.5468917217	38.7032220521
277.5	41.0718100851	38.7032220521
277.8	41.077913787	38.7032220521
278.1	40.4522843423	38.7032220521
278.4	41.1175878494	38.7479269
278.7	41.1725211665	39.0794878551
279	41.1542100608	38.755377708
279.3	41.1725211665	38.7814555359
279.6	40.7361064806	38.7106728601
279.9	41.1694693155	38.7069474561
280.2	41.1725211665	38.7032220521
280.5	40.5499435727	38.7032220521
280.8	41.1725211665	38.7032220521
281.1	41.1755730174	38.7032220521
281.4	41.1938841231	38.7032220521
281.7	41.2732322478	38.7032220521
282	40.8398694129	38.7032220521
282.3	41.2671285459	38.7032220521
282.6	41.2732322478	38.7032220521
282.9	40.653706505	38.7032220521
283.2	41.2701803969	38.7032220521
283.5	41.3647877763	38.7032220521
283.8	41.3495285216	38.7032220521
284.1	41.3678396273	38.7032220521
284.4	40.9375286433	38.7032220521
284.7	41.3647877763	38.8112587678
285	41.3708914782	41.0539519698
285.3	40.7513657354	41.0204233339
285.6	41.3678396273	40.6776861668
285.9	41.3708914782	40.6739607628
286.2	41.3495285216	40.5212191992
286.5	41.4624470067	39.9512323888
286.8	41.0351878737	39.9251545608
287.1	41.5631580881	41.0539519698
287.4	41.5997802995	41.7878565558
287.7	41.0443434266	41.4711972167
288	41.6638691694	41.1694394935
288.3	41.6638691694	41.1508124735
288.6	41.6425062128	41.0725789898
288.9	41.7310098903	41.4413939848
289.2	41.4197210934	41.5494307005
289.5	42.0422986872	41.1396362616
289.8	42.0514542401	41.4562956007
290.1	41.6669210204	41.4115907528
290.4	42.3688467389	41.0800297977
290.7	42.4878689259	41.0763043937
291	42.5641651997	41.0725789898
291.3	42.5855281563	42.1678477628
291.6	42.3444319313	42.5664659897
291.9	42.7777947662	42.8943015409
292.2	42.7838984681	41.9443235234
292.5	42.1552171724	42.2349050346
292.8	42.7808466171	42.9688096207
293.1	42.973113227	42.2647082666
293.4	43.031098395	41.9331473114
293.7	43.1684316878	42.2013763987
294	42.9242836118	42.1790239748
294.3	43.3576464467	41.8102089798
294.6	43.5499130565	41.4711972167
294.9	42.970061376	41.0763043937
295.2	43.6567278398	40.7484688426
295.5	43.8917203629	40.7149402067
295.8	43.8825648101	41.0576773738
296.1	43.9039277667	41.0204233339
296.4	43.4644612299	40.621805107
296.7	43.8947722139	40.2790679399
297	43.9924314443	40.6627845509
297.3	43.3759575524	41.1172838376
297.6	44.1877499051	41.7766803439
297.9	44.1969054579	41.8549138277
298.2	44.1694387994	41.5382544885
298.5	44.1969054579	41.8549138277
298.8	43.7574389211	41.5494307005
299.1	44.1877499051	41.4711972167
299.4	44.1969054579	41.8511884237
299.7	43.5651723113	41.6053117603
300	44.1969054579	42.2349050346
300.3	44.1969054579	42.6446994735
300.6	44.1694387994	41.8847170596
300.9	44.2274239674	41.4711972167
301.2	43.8489944496	41.0837552017
301.5	44.3830683659	41.0763043937
301.8	44.3922239187	41.0763043937
302.1	43.766594474	41.0725789898
302.4	44.4257942792	41.0725789898
302.7	44.4837794472	41.1172838376
303	44.560075721	41.4562956007
303.3	44.5875423795	41.2141443414
303.6	44.2457350731	41.7766803439
303.9	44.6760460571	42.3056877104
304.2	44.6852016099	42.3317655384
304.5	44.0534684633	41.8735408476
304.8	44.6852016099	41.4749226207
305.1	44.6882534609	41.0763043937
305.4	44.6577349514	40.7521942466
305.7	44.6852016099	40.3498506157
306	44.2396313712	39.8841751169
306.3	44.682149759	39.5600649698
306.6	44.6852016099	39.481831486
306.9	44.0534684633	39.478106082
307.2	44.682149759	39.101840279
307.5	44.6882534609	39.0906640671
307.8	44.6638386533	39.0906640671
308.1	44.6852016099	39.0906640671
308.4	44.2457350731	39.0906640671
308.7	44.6760460571	39.0906640671
309	44.5966979324	39.0906640671
309.3	43.9558092329	39.0906640671
309.6	44.4929350001	38.7143982641
309.9	44.4196905773	38.9528241194
310.2	44.2732017317	39.0794878551
310.5	44.1084017804	39.0869386631
310.8	43.6597796907	39.0459592192
311.1	43.8947722139	39.0794878551
311.4	43.8550981515	39.0832132591
311.7	43.1287576254	39.0869386631
312	43.7543870702	39.0869386631
312.3	43.7574389211	39.0869386631
312.6	43.7330241135	39.3961471943
312.9	43.6872463493	39.4669298701
313.2	43.1196020726	39.846921077
313.5	43.4766686337	44.5148522765
313.8	43.4705649318	50.6245148201
314.1	42.6465651753	50.4754986605
314.4	43.2416761106	47.0294999698
314.7	43.1806390916	44.3658361169
315	43.2416761106	43.1103749723
315.3	43.2660909182	42.3503925583
315.6	42.9242836118	41.6388403962
315.9	43.3576464467	41.2886524212
316.2	43.3637501486	41.0725789898
316.5	42.7381207038	41.0688535858
316.8	43.3637501486	40.7298418227
317.1	43.6536759888	40.6776861668
317.4	43.8184759401	40.5733748551
317.7	44.0931425256	40.4988667753
318	43.8489944496	40.2827933439
318.3	44.2854091355	40.2790679399
318.6	44.5814386776	40.2790679399
318.9	43.9649647857	40.6627845509
319.2	44.5875423795	41.0576773738
319.5	44.682149759	41.0614027778
319.8	44.6638386533	42.2982369025
320.1	44.6852016099	45.9454074087
320.4	44.2487869241	46.2508905359
320.7	44.682149759	44.6228889922
321	44.6852016099	43.4493867354
321.3	44.0595721652	42.7303837653
321.6	44.7767571384	41.8847170596
321.9	44.8194830517	41.1508124735
322.2	44.8591571141	41.0725789898
322.5	45.0575274258	40.7484688426
322.8	44.62111274	40.6776861668
323.1	45.2620014395	40.2827933439
323.4	45.4023865832	40.2753425359
323.7	44.987334854	40.2753425359
324	45.6190680006	40.2753425359
324.3	45.6190680006	40.2753425359
324.6	45.597705044	40.2753425359
324.9	45.6526383611	40.2753425359
325.2	45.2742088433	40.219461476
325.5	45.8113346105	39.9251545608
325.8	45.8174383124	39.8841751169
326.1	45.0941496372	39.880449713
326.4	45.6892605725	39.880449713
326.7	45.6312754044	39.876724309
327	45.5030976645	39.876724309
327.3	45.5244606212	39.876724309
327.6	45.0849940844	39.876724309
327.9	45.5214087702	39.876724309
328.2	45.5244606212	39.876724309
328.5	44.8988311764	39.876724309
328.8	45.5244606212	39.6233968376
329.1	45.3871273284	39.865548097
329.4	45.3169347566	39.869273501
329.7	45.292519949	39.869273501
330	44.6546831004	39.869273501
330.3	45.0849940844	39.869273501
330.6	44.9964904068	39.869273501
330.9	44.3372906016	39.869273501
331.2	44.9110385802	39.48555689
331.5	44.9110385802	39.7984908252
331.8	44.8866237726	39.481831486
332.1	44.9110385802	39.478106082
332.4	44.4776757453	39.478106082
332.7	44.9079867293	39.478106082
333	44.7309793742	39.478106082
333.3	44.0961943766	39.478106082
333.6	44.6241645909	39.478106082
333.9	44.5936460814	39.478106082
334.2	44.499038702	39.478106082
334.5	44.438001683	39.478106082
334.8	43.9893795933	39.478106082
335.1	44.3189794959	39.478106082
335.4	44.2945646883	39.478106082
335.7	43.6078982246	39.478106082
336	44.2274239674	39.478106082
336.3	44.2274239674	39.478106082
336.6	44.2030091598	39.478106082
336.9	44.2030091598	39.478106082
337.2	43.6902982002	39.5265363339
337.5	44.1236610351	39.865548097
337.8	44.1267128861	39.869273501
338.1	43.4095279128	39.869273501
338.4	44.0015869971	39.869273501
338.7	43.9436018291	39.869273501
339	43.766594474	39.869273501
339.3	43.7879574306	39.869273501
339.6	43.3515427448	39.869273501
339.9	43.7849055797	39.869273501
340.2	43.7879574306	39.869273501
340.5	43.1623279859	39.869273501
340.8	43.7818537287	39.869273501
341.1	43.7879574306	39.869273501
341.4	43.7604907721	39.869273501
341.7	43.7818537287	39.869273501
342	43.3484908938	39.869273501
342.3	43.7788018778	39.869273501
342.6	43.7818537287	39.869273501
342.9	43.1623279859	39.869273501
343.2	43.7818537287	39.869273501
343.5	43.7818537287	39.869273501
343.8	43.7604907721	39.869273501
344.1	43.7818537287	39.872998905
344.4	43.3423871919	39.872998905
344.7	43.7757500268	39.872998905
345	43.7788018778	39.872998905
345.3	43.156224284	39.872998905
345.6	43.7726981759	39.872998905
345.9	43.7574389211	39.872998905
346.2	43.6597796907	39.872998905
346.5	43.6811426474	39.872998905
346.8	43.2416761106	39.872998905
347.1	43.5743278641	39.872998905
347.4	43.5865352679	39.872998905
347.7	42.9578539722	39.872998905
348	43.583483417	39.872998905
348.3	43.583483417	39.872998905
348.6	43.5621204603	39.872998905
348.9	43.5621204603	39.872998905
349.2	43.0463576498	39.872998905
349.5	43.4766686337	39.872998905
349.8	43.4858241866	39.872998905
350.1	42.8632465928	39.872998905
350.4	43.4858241866	39.872998905
350.7	43.4858241866	39.872998905
351	43.4675130809	39.872998905
351.3	43.4858241866	39.872998905
351.6	43.0463576498	39.872998905
351.9	43.4766686337	39.872998905
352.2	43.4919278885	39.872998905
352.5	42.8632465928	39.872998905
352.8	43.4919278885	39.872998905
353.1	43.4919278885	39.872998905
353.4	43.4675130809	39.872998905
353.7	43.4919278885	39.9586831967
354	42.9517502703	39.9586831967
354.3	43.3851131052	39.9586831967
354.6	43.3942686581	40.1971090521
354.9	42.7655873624	39.9251545608
355.2	43.3881649562	40.1859328401
355.5	43.3942686581	40.219461476
355.8	43.3759575524	39.880449713
356.1	43.3942686581	39.9251545608
356.4	42.9517502703	40.2641663239
356.7	43.3851131052	40.2678917279
357	43.3942686581	40.2678917279
357.3	42.7655873624	40.2678917279
357.6	43.3942686581	40.2678917279
357.9	43.397320509	40.2678917279
358.2	43.3759575524	40.0145642566
358.5	43.397320509	40.2641663239
358.8	42.9578539722	40.2678917279
359.1	43.3912168071	40.1859328401
359.4	43.397320509	40.2641663239
359.7	42.7655873624	40.2678917279
360	43.397320509	40.2678917279
360.3	43.397320509	40.2678917279
360.6	43.3759575524	40.2716171319
360.9	43.397320509	40.2716171319
361.2	42.9578539722	40.2716171319
361.5	43.3912168071	40.2716171319
361.8	43.4034242109	40.2716171319
362.1	42.6801355358	40.2716171319
362.4	43.3088168315	40.2716171319
362.7	43.3088168315	40.2716171319
363	43.2844020239	40.2716171319
363.3	43.3088168315	40.2716171319
363.6	42.9578539722	40.0145642566
363.9	43.3912168071	40.2641663239
364.2	43.4034242109	40.2678917279
364.5	42.7716910643	40.2678917279
364.8	43.4034242109	40.2678917279
365.1	43.4034242109	40.2678917279
365.4	43.3820612543	40.2678917279
365.7	43.4034242109	40.2678917279
366	42.8693502947	40.2678917279
366.3	43.3027131296	40.2678917279
366.6	43.3088168315	40.2678917279
366.9	42.6801355358	40.2678917279
367.2	43.3057649805	40.2678917279
367.5	43.3088168315	40.2678917279
367.8	43.2844020239	40.2678917279
368.1	43.3088168315	40.2678917279
368.4	42.8632465928	40.2678917279
368.7	43.3027131296	40.2678917279
369	43.3088168315	40.2678917279
369.3	42.6801355358	40.2678917279
369.6	43.3057649805	40.2678917279
369.9	43.3088168315	40.2678917279
370.2	43.2844020239	40.2678917279
370.5	43.3088168315	40.2716171319
370.8	42.8693502947	40.2716171319
371.1	43.3027131296	40.2716171319
371.4	43.3088168315	40.2716171319
371.7	42.6801355358	40.2716171319
372	43.3088168315	40.2716171319
372.3	43.3118686824	40.2716171319
372.6	43.2844020239	40.2716171319
372.9	43.3088168315	40.2716171319
373.2	42.8693502947	40.2716171319
373.5	43.3027131296	40.2716171319
373.8	43.3088168315	40.2716171319
374.1	42.6801355358	40.2716171319
374.4	43.3088168315	40.2716171319
374.7	43.3118686824	40.2716171319
375	43.2844020239	40.2716171319
375.3	43.3088168315	40.2716171319
375.6	42.8632465928	40.2716171319
375.9	43.2966094277	40.2716171319
376.2	43.3088168315	40.2716171319
376.5	42.6801355358	40.2716171319
376.8	43.3057649805	40.2716171319
377.1	43.3088168315	40.2716171319
377.4	43.2844020239	40.2716171319
377.7	43.3088168315	40.2716171319
378	42.8693502947	40.2716171319
378.3	43.3027131296	40.2716171319
378.6	43.3088168315	40.2716171319
378.9	42.6801355358	40.2716171319
379.2	43.3057649805	40.2716171319
379.5	43.3088168315	40.2716171319
379.8	43.2844020239	40.2716171319
380.1	43.3088168315	40.2716171319
380.4	42.8632465928	40.2716171319
380.7	43.3027131296	40.2716171319
381	43.3088168315	40.2716171319
381.3	42.6801355358	40.2716171319
381.6	43.3057649805	40.2716171319
381.9	43.3088168315	40.2716171319
382.2	43.2844020239	40.2716171319
382.5	43.3057649805	40.2716171319
382.8	42.8632465928	40.2716171319
383.1	43.2966094277	40.2716171319
383.4	43.3088168315	40.5249446032
383.7	42.6801355358	40.2790679399
384	43.3057649805	40.2753425359
384.3	43.3057649805	40.2753425359
384.6	43.278298322	40.2753425359
384.9	43.3088168315	40.3498506157
385.2	42.8632465928	40.2790679399
385.5	43.3027131296	40.3498506157
385.8	43.3088168315	40.2790679399
386.1	42.6801355358	40.4131824835
386.4	43.3057649805	40.4131824835
386.7	43.3057649805	40.5845510671
387	43.2844020239	40.6627845509
387.3	43.3057649805	40.4131824835
387.6	42.8601947418	40.6627845509
387.9	43.2966094277	40.6665099548
388.2	43.3057649805	40.6665099548
388.5	42.6801355358	40.6702353588
388.8	43.3057649805	40.6702353588
389.1	43.3088168315	40.6702353588
389.4	43.278298322	40.6702353588
389.7	43.3057649805	40.6702353588
390	42.7655873624	40.6702353588
390.3	43.1989501973	40.6702353588
390.6	43.2081057501	40.6702353588
390.9	42.5824763054	40.6702353588
391.2	43.2020020482	40.6702353588
391.5	43.2081057501	40.6702353588
391.8	43.1867427935	40.6702353588
392.1	43.2020020482	40.6702353588
392.4	42.7625355114	40.5845510671
392.7	43.1989501973	40.5845510671
393	43.2081057501	40.6627845509
393.3	42.5824763054	40.5882764711
393.6	43.2020020482	40.6627845509
393.9	43.2081057501	40.6665099548
394.2	43.1867427935	40.6665099548
394.5	43.2020020482	40.6665099548
394.8	42.7625355114	40.621805107
395.1	43.1958983463	40.599452683
395.4	43.2081057501	40.6590591469
395.7	42.5763726035	40.4169078875
396	43.2020020482	40.6665099548
396.3	43.2050538992	40.6665099548
396.6	43.1867427935	40.6665099548
396.9	43.2081057501	40.6665099548
397.2	42.7625355114	40.6665099548
397.5	43.1958983463	40.6665099548
397.8	43.2081057501	40.6665099548
398.1	42.5763726035	40.6702353588
398.4	43.2020020482	40.6702353588
398.7	43.2081057501	40.6702353588
399	43.1867427935	40.6702353588
399.3	43.2081057501	40.6702353588
399.6	42.7625355114	40.6702353588
399.9	43.1989501973	40.6702353588
400.2	43.2081057501	40.6702353588
400.5	42.5824763054	40.6702353588
400.8	43.2081057501	40.6702353588
401.1	43.2081057501	40.6702353588
401.4	43.1867427935	40.6702353588
401.7	43.2081057501	40.6702353588
402	42.7625355114	40.6702353588
402.3	43.1989501973	40.6702353588
402.6	43.2111576011	40.6702353588
402.9	42.5824763054	40.6702353588
403.2	43.2020020482	40.6702353588
403.5	43.2081057501	40.6702353588
403.8	43.1867427935	40.6702353588
404.1	43.2081057501	40.6702353588
404.4	42.7625355114	40.6702353588
404.7	43.1989501973	40.4131824835
405	43.1196020726	40.6665099548
405.3	42.484817075	40.6665099548
405.6	43.1043428178	40.5845510671
405.9	43.1104465197	40.6665099548
406.2	43.0890835631	40.6665099548
406.5	43.1104465197	40.6665099548
406.8	42.6740318339	40.6665099548
407.1	43.1012909669	40.6665099548
407.4	43.1104465197	40.6702353588
407.7	42.484817075	40.6702353588
408	43.1104465197	40.6702353588
408.3	43.1104465197	40.6702353588
408.6	43.0890835631	40.6702353588
408.9	43.1104465197	40.6702353588
409.2	42.6740318339	40.6702353588
409.5	43.1012909669	40.6702353588
409.8	43.1134983707	40.6702353588
410.1	42.484817075	40.6702353588
410.4	43.1104465197	40.6702353588
410.7	43.1134983707	40.6702353588
411	43.0890835631	40.6702353588
411.3	43.1134983707	40.6702353588
411.6	42.6740318339	40.6702353588
411.9	43.1073946688	40.3498506157
412.2	43.1134983707	40.6590591469
412.5	42.484817075	40.4131824835
412.8	43.1134983707	40.3498506157
413.1	43.1134983707	40.2790679399
413.4	43.092135414	40.3498506157
413.7	43.1134983707	40.2790679399
414	42.6740318339	40.2753425359
414.3	43.1073946688	40.2753425359
414.6	43.1134983707	40.2753425359
414.9	42.4878689259	40.2753425359
415.2	43.1104465197	40.2753425359
415.5	43.1196020726	40.2753425359
415.8	43.092135414	40.2753425359
416.1	43.1196020726	40.2753425359
416.4	42.6801355358	40.2753425359
416.7	43.1104465197	40.2753425359
417	43.1196020726	40.2753425359
417.3	42.4939726278	40.2753425359
417.6	43.1134983707	40.2753425359
417.9	43.1196020726	40.2753425359
418.2	43.092135414	40.2753425359
418.5	43.1196020726	40.2753425359
418.8	42.6801355358	40.219461476
419.1	43.1104465197	40.1971090521
419.4	43.1226539235	39.876724309
419.7	42.4939726278	39.872998905
420	43.1196020726	39.872998905
420.3	43.1226539235	39.872998905
420.6	43.092135414	39.872998905
420.9	43.1226539235	39.869273501
421.2	42.6801355358	39.869273501
421.5	43.1165502216	39.869273501
421.8	43.1226539235	39.869273501
422.1	42.4970244788	39.869273501
422.4	43.1196020726	39.869273501
422.7	43.1226539235	39.869273501
423	43.092135414	39.5451633539
423.3	43.1226539235	39.8208432491
423.6	42.6831873867	39.861822693
423.9	43.1165502216	39.869273501
424.2	43.1226539235	39.7947654212
424.5	42.5031281807	39.865548097
424.8	43.1226539235	39.5563395658
425.1	43.1287576254	39.478106082
425.4	43.0982391159	39.478106082
425.7	43.1287576254	39.478106082
426	42.6892910886	39.478106082
426.3	43.1196020726	39.478106082
426.6	43.2203131539	39.478106082
426.9	42.603839262	39.478106082
427.2	43.2264168558	39.478106082
427.5	43.2264168558	39.478106082
427.8	43.1958983463	39.478106082
428.1	43.2264168558	39.478106082
428.4	42.79000217	39.478106082
428.7	43.2233650049	39.478106082
429	43.1379131783	39.478106082
429.3	42.5122837335	39.4259504262
429.6	43.1287576254	39.3961471943
429.9	43.1287576254	39.4259504262
430.2	43.1012909669	39.3961471943
430.5	43.1287576254	39.101840279
430.8	42.6892910886	39.4035980022
431.1	43.1196020726	39.135368915
431.4	43.1287576254	39.4259504262
431.7	42.5061800316	39.0981148751
432	43.1287576254	39.3961471943
432.3	43.1287576254	39.1688975509
432.6	43.1012909669	39.3328153264
432.9	43.1287576254	39.4594790621
433.2	42.6892910886	39.4669298701
433.5	43.1196020726	39.3924217903
433.8	43.1257057745	39.3328153264
434.1	42.5061800316	39.1688975509
434.4	43.1287576254	39.1688975509
434.7	43.1287576254	39.0906640671
435	43.1012909669	39.0906640671
435.3	43.1226539235	39.0906640671
435.6	42.6892910886	39.0869386631
435.9	43.1196020726	39.0869386631
436.2	43.1226539235	39.0869386631
436.5	42.4054689503	39.0869386631
436.8	43.0249946931	39.0869386631
437.1	43.0280465441	39.0869386631
437.4	43.0036317365	39.0869386631
437.7	43.0249946931	39.0869386631
438	42.5946837092	39.0869386631
438.3	43.0219428422	39.0869386631
438.6	43.0249946931	39.0869386631
438.9	42.4085208012	39.0869386631
439.2	43.0249946931	39.0869386631
439.5	43.0249946931	39.0869386631
439.8	43.0036317365	39.0869386631
440.1	43.0249946931	39.0869386631
440.4	42.5946837092	39.0869386631
440.7	43.0188909912	39.1688975509
441	43.0249946931	39.0906640671
441.3	42.4085208012	39.0869386631
441.6	43.0219428422	39.0869386631
441.9	43.0249946931	39.0869386631
442.2	43.0005798855	39.0869386631
442.5	43.0249946931	39.0869386631
442.8	42.5946837092	39.0869386631
443.1	43.0188909912	39.0869386631
443.4	43.0249946931	39.0869386631
443.7	42.4054689503	39.0869386631
444	43.0219428422	39.0869386631
444.3	43.0219428422	39.0869386631
444.6	42.9944761836	39.0869386631
444.9	43.0249946931	39.0869386631
445.2	42.5916318582	39.0049797753
445.5	43.0188909912	39.0757624511
445.8	43.0219428422	39.0385084112
446.1	42.4054689503	39.0720370471
446.4	43.0219428422	39.0794878551
446.7	43.0219428422	39.0794878551
447	42.9944761836	39.0832132591
447.3	43.0219428422	39.0869386631
447.6	42.5855281563	39.0869386631
447.9	43.0127872893	39.0869386631
448.2	43.0158391403	39.0869386631
448.5	42.3993652484	39.0869386631
448.8	43.0158391403	39.0869386631
449.1	43.0158391403	39.0869386631
449.4	42.9517502703	39.0869386631
449.7	42.9273354627	39.0869386631
450	42.484817075	39.3924217903
450.3	42.912076208	39.4632044661
450.6	42.9151280589	39.7873146132
450.9	42.3444319313	40.249264708
451.2	43.0127872893	41.0502265658
451.5	43.0158391403	41.9070694835
451.8	42.9914243327	42.9576334087
452.1	43.0158391403	43.3488008276
452.4	42.5855281563	43.8778081942
452.7	43.0097354384	44.6005365683
453	43.0127872893	45.0513104511
453.3	42.3993652484	45.7554118052
453.6	42.9242836118	46.4744147753
453.9	42.9212317608	46.9214632541
454.2	42.8968169532	47.3759625408
454.5	42.9151280589	48.0241828351
454.8	42.484817075	48.1024163189
455.1	42.9059725061	48.4898583338
455.4	42.909024357	48.5531902017
455.7	42.301706018	48.8884765608
456	42.909024357	48.8884765608
456.3	42.909024357	48.8884765608
456.6	42.8937651023	48.8884765608
456.9	42.9151280589	48.8884765608
457.2	42.4787133731	48.8884765608
457.5	42.8327280833	48.6425998974
457.8	42.8205206795	48.813968481
458.1	42.1948912347	48.6425998974
458.4	42.8144169776	49.2684677678
458.7	42.8144169776	50.1290360894
459	42.8846095494	50.8443136555
459.3	42.9059725061	51.6303738974
459.6	42.4756615221	52.0550699523
459.9	42.9059725061	52.3009466156
460.2	42.909024357	52.8038761543
460.5	42.2894986142	53.7240509398
460.8	42.9059725061	54.6442257253
461.1	43.0036317365	55.512244855
461.4	42.9822687798	55.9518425258
461.7	43.0036317365	56.3392845408
462	42.5672170506	57.1216193787
462.3	43.0005798855	57.5761186655
462.6	43.095187265	57.9076796206
462.9	42.5641651997	57.9672860844
463.2	43.2905057258	58.6080555707
463.5	43.2966094277	59.0029483936
463.8	43.2721946201	59.5133287403
464.1	43.2966094277	60.1578236305
464.4	42.9334391646	60.6942818051
464.7	43.4766686337	61.0779984161
465	43.6689352436	61.476616643
465.3	43.0646687555	62.1360131492
465.6	44.0168462519	62.6650205158
465.9	44.1389202899	63.0077576829
466.2	44.2945646883	63.4063759098
466.5	44.5966979324	63.7379368649
466.8	44.1755425013	64.5426241268
467.1	44.8957793255	64.9375169497
467.4	44.9018830274	65.4590735083
467.7	44.2823572845	66.1110192065
468	44.8988311764	66.2488591542
468.3	44.8988311764	66.6400265731
468.6	45.350505117	66.9790383362
468.9	45.5885494911	66.9790383362
469.2	45.4664754531	66.9827637402
469.5	46.3820307381	66.9827637402
469.8	46.3942381419	67.2919722714
470.1	46.3545640796	67.3702057552
470.4	47.1114231152	67.3739311592
470.7	47.3189489798	67.3739311592
471	47.5905637143	67.3739311592
471.3	47.611926671	67.3739311592
471.6	47.1724601342	67.3739311592
471.9	47.60887482	67.3739311592
472.2	47.6149785219	68.9833056828
472.5	47.4410230178	69.0354613387
472.8	48.0941191211	68.9646786629
473.1	48.5793634221	68.9609532589
473.4	48.7472152244	68.9609532589
473.7	49.0218818099	68.9609532589
474	49.0615558722	69.2701617901
474.3	49.5071261109	69.3483952739
474.6	49.8001038021	69.4005509297
474.9	49.2934965444	69.7358372888
475.2	50.0961333443	69.7432880968
475.5	50.1022370462	69.7432880968
475.8	50.0808740895	69.7432880968
476.1	50.1022370462	69.7842675407
476.4	49.8336741626	70.1232793038
476.7	50.5294961792	70.1307301118
477	51.0177923312	70.1307301118
477.3	50.3952147374	70.1307301118
477.6	51.3046663205	70.4399386429
477.9	51.4633625699	70.5181721267
478.2	51.6769921364	70.5218975307
478.5	51.9333476162	70.5703277826
478.8	51.4969329303	70.9018887377
479.1	52.128666077	70.9056141417
479.4	52.1408734808	70.9056141417
479.7	51.4969329303	70.9056141417
480	52.1347697789	70.9056141417
480.3	52.1408734808	70.9056141417
480.6	52.5101474457	70.5367991467
480.9	52.6871548008	70.1940619796
481.2	52.4674215324	69.8252469846
481.5	53.0991546791	69.4340795656
481.8	53.1113620829	68.9684040669
482.1	52.7695547765	68.6480193237
482.4	53.4440138364	68.2531265008
482.7	53.5019990045	67.8545082739
483	53.6179693406	67.7762747901
483.3	53.6484878501	67.3888327751
483.6	53.1968139095	67.064722628
483.9	53.6423841482	66.9939399522
484.2	53.651539701	66.9306080843
484.5	53.1998657604	66.5953217252
484.8	53.8407544599	66.5915963213
485.1	54.1337321511	66.2749369821
485.4	54.1550951078	66.1967034983
485.7	54.2313913815	66.1929780943
486	53.9689321998	65.8837695632
486.3	54.4175542895	65.8055360794
486.6	54.5152135199	65.8055360794
486.9	53.9201025846	65.8018106754
487.2	54.6159246012	65.8018106754
487.5	54.6220283031	65.8018106754
487.8	54.6006653465	65.4926021442
488.1	54.6220283031	65.4143686604
488.4	54.203924723	65.4106432564
488.7	54.7105319807	65.4069178524
489	54.8051393601	65.4069178524
489.3	54.1734062135	65.0939839173
489.6	54.9058504415	65.0157504335
489.9	54.9851985662	65.0120250295
490.2	55.0828577966	65.0120250295
490.5	55.1103244551	65.0120250295
490.8	54.6555986636	64.6357592265
491.1	55.241554046	64.6283084185
491.4	55.2537614498	64.6283084185
491.7	54.6098208993	64.2371409996
492	55.2537614498	63.9018546405
492.3	55.2537614498	63.4995110096
492.6	55.2323984931	63.3840234859
492.9	55.2873318102	63.0263847028
493.2	54.8966948886	62.6985491517
493.5	55.4399243577	62.5607092041
493.8	55.4490799106	62.1695417851
494.1	54.99740597	61.7783743662
494.4	55.6443983714	61.4319117951
494.7	55.6474502223	60.9885887203
495	55.7206946451	60.6495769572
495.3	55.7420576018	60.3291922141
495.6	55.2873318102	59.8709675233
495.9	55.7329020489	59.5505827802
496.2	55.7420576018	59.1668661692
496.5	55.0950652004	59.0290262216
496.8	55.7420576018	58.6490350146
497.1	55.8336131303	58.3174740595
497.4	55.8122501736	57.9263066405
497.7	55.8336131303	57.8667001767
498	55.4765465691	57.5314138176
498.3	55.9282205097	57.1476972066
498.6	55.9312723607	57.1402463986
498.9	55.3300577235	56.4398704485
499.2	56.0289315911	56.3616369647
499.5	56.035035293	56.0487030296
499.8	56.0075686344	55.9704695458
500.1	56.035035293	55.9704695458
500.4	55.6169317128	55.6724372266
500.7	56.1265908215	55.5830275308
501	56.2211982009	55.5830275308
501.3	55.5803095014	55.2812698076
501.6	56.3219092823	55.508519451
501.9	56.3646351956	55.2030363238
502.2	56.401257407	55.1993109198
502.5	56.4226203636	55.1993109198
502.8	55.973998274	54.8901023887
503.1	56.4165166617	54.8118689049
503.4	56.4287240655	54.8081435009
503.7	55.7786798132	54.5548160296
504	56.4226203636	54.4244268899
504.3	56.4287240655	54.4169760819
504.6	56.401257407	54.4169760819
504.9	56.462294426	54.4169760819
505.2	56.0686056534	54.4169760819
505.5	56.5172277431	54.4169760819
505.8	56.5263832959	54.4169760819
506.1	55.973998274	54.7932418849
506.4	56.6179388244	54.8006926929
506.7	56.6209906754	54.8565737528
507	56.6942350982	55.1881347079
507.3	56.7186499058	55.1918601119
507.6	56.2669759652	55.1918601119
507.9	56.7125462039	55.1918601119
508.2	56.7217017567	55.1918601119
508.5	56.0686056534	55.3781303114
508.8	56.7217017567	55.5755767228
509.1	56.8651387514	55.5755767228
509.4	56.8468276457	55.5755767228
509.7	56.8712424533	55.5755767228
510	56.5080721902	55.5755767228
510.3	56.9597461308	55.5755767228
510.6	56.9658498327	55.6277323787
510.9	56.3585314937	55.9220392939
511.2	57.0604572122	55.895961466
511.5	57.0635090631	55.6277323787
511.8	57.0421461065	55.9592933338
512.1	57.0635090631	55.5867529348
512.4	56.6118351225	55.5793021268
512.7	57.0574053612	55.5793021268
513	57.0635090631	55.5793021268
513.3	56.4165166617	55.5793021268
513.6	57.0604572122	55.5793021268
513.9	57.1001312745	55.2812698076
514.2	57.1398053369	55.1993109198
514.5	57.1672719954	55.1993109198
514.8	56.7125462039	55.1993109198
515.1	57.255775673	55.1955855158
515.4	57.2649312258	54.8155943089
515.7	56.6148869735	54.8081435009
516	57.2588275239	54.8081435009
516.3	57.2618793749	54.8081435009
516.6	57.2374645673	54.4356031019
516.9	57.2985015863	54.4207014859
517.2	56.9078646647	54.6554019373
517.5	57.3534349034	54.4207014859
517.8	57.3625904562	54.4169760819
518.1	56.6331980792	54.4169760819
518.4	57.2862941825	54.4169760819
518.7	57.2893460334	54.4169760819
519	57.2618793749	54.4169760819
519.3	57.2862941825	54.7932418849
519.6	56.8346202419	54.8006926929
519.9	57.2832423315	54.8006926929
520.2	57.2923978844	54.8006926929
520.5	56.6393017811	54.8006926929
520.8	57.2862941825	54.4914841617
521.1	57.2923978844	54.4207014859
521.4	57.2618793749	54.033259471
521.7	57.2923978844	53.5787601842
522	56.8346202419	52.9230890819
522.3	57.2893460334	52.4648643912
522.6	57.2985015863	52.0140905084
522.9	56.6393017811	51.3584194061
523.2	57.2893460334	51.2243048625
523.5	57.2985015863	50.5611829523
523.8	57.2649312258	50.4904002765
524.1	57.2923978844	50.4866748725
524.4	56.8346202419	50.0955074535
524.7	57.2893460334	50.0880566456
525	57.3809015619	50.0880566456
525.3	56.7461165643	50.0880566456
525.6	57.3900571148	50.0843312416
525.9	57.3961608167	50.0843312416
526.2	57.3625904562	50.0843312416
526.5	57.3961608167	50.0843312416
526.8	56.9353313232	50.0843312416
527.1	57.3809015619	50.0843312416
527.4	57.3961608167	50.2258965932
527.7	56.7400128624	50.4754986605
528	57.3900571148	50.4792240645
528.3	57.3961608167	50.5351051244
528.6	57.3625904562	50.8703914835
528.9	57.3961608167	50.9262725433
529.2	56.9353313232	51.2652843064
529.5	57.3809015619	51.2690097104
529.8	57.3900571148	51.5893944535
530.1	56.7461165643	51.7197835932
530.4	57.3900571148	52.0587953563
530.7	57.3931089657	52.0625207603
531	57.3686941581	52.3717292914
531.3	57.3961608167	52.4499627752
531.6	56.9353313232	52.8336793862
531.9	57.3809015619	52.8411301942
532.2	57.3900571148	52.8411301942
532.5	56.7461165643	53.1503387253
532.8	57.3870052638	53.2285722091
533.1	57.3961608167	53.2322976131
533.4	57.3686941581	53.1838673612
533.7	57.3961608167	52.8523064061
534	56.9353313232	52.7926999423
534.3	57.3870052638	52.151930456
534.6	57.3961608167	52.0140905084
534.9	56.7491684153	51.3584194061
535.2	57.3870052638	51.3584194061
535.5	57.3961608167	51.2243048625
535.8	57.3686941581	50.8852930994
536.1	57.3961608167	50.4941256805
536.4	56.9414350251	50.4866748725
536.7	57.3870052638	50.4307938126
537	57.3961608167	50.3972651767
537.3	56.7491684153	50.0955074535
537.6	57.3870052638	49.9427658899
537.9	57.3961608167	49.6931638226
538.2	57.3686941581	49.6894384186
538.5	57.313760841	49.6894384186
538.8	56.8376720928	49.6894384186
539.1	57.2893460334	49.6894384186
539.4	57.3015534372	49.6894384186
539.7	56.6484573339	49.6894384186
540	57.2985015863	49.6894384186
540.3	57.3015534372	49.6894384186
540.6	57.2649312258	49.6894384186
540.9	57.3015534372	50.0731550296
541.2	56.8376720928	50.0806058376
541.5	57.3625904562	50.0806058376
541.8	57.3717460091	50.4717732565
542.1	56.7217017567	50.4792240645
542.4	57.3717460091	50.4792240645
542.7	57.37479786	50.8666660795
543	57.2710349277	50.8741168874
543.3	57.3015534372	50.8778422914
543.6	56.8376720928	50.9299979473
543.9	57.2893460334	50.8964693114
544.2	57.3015534372	50.8852930994
544.5	56.7186499058	50.4978510845
544.8	57.3686941581	50.4904002765
545.1	57.37479786	50.4307938126
545.4	57.3442793505	50.0917820495
545.7	57.37479786	50.0880566456
546	56.9139683666	50.0880566456
546.3	57.3686941581	49.7602210944
546.6	57.2832423315	49.7602210944
546.9	56.6301462282	49.6968892266
547.2	57.2679830768	50.0619788176
547.5	57.2740867787	49.9986469498
547.8	57.252723822	50.0768804336
548.1	57.2740867787	50.0806058376
548.4	56.8193609871	50.0806058376
548.7	57.2649312258	50.4717732565
549	57.2740867787	50.4792240645
549.3	56.6301462282	50.4792240645
549.6	57.1886349521	50.4792240645
549.9	57.1886349521	50.4792240645
550.2	57.1459090388	50.4792240645
550.5	57.1794793992	50.4792240645
550.8	56.7217017567	50.8666660795
551.1	57.1733756973	50.7958834037
551.4	57.1794793992	50.8703914835
551.7	56.5324869978	50.8741168874
552	57.1764275483	50.9598011792
552.3	57.1794793992	51.1013665308
552.6	57.0574053612	51.2690097104
552.9	57.0848720198	51.1311697628
553.2	56.6240425263	50.9598011792
553.5	57.069612765	51.2615589024
553.8	57.0787683179	51.2690097104
554.1	56.4287240655	51.2690097104
554.4	57.0787683179	50.9486249672
554.7	57.0818201688	50.9523503712
555	57.0513016593	50.9523503712
555.3	57.0787683179	51.2317556705
555.6	56.6240425263	50.8852930994
555.9	57.069612765	50.8815676954
556.2	57.0787683179	50.8294120396
556.5	56.337168537	50.5611829523
556.8	56.9780572365	50.4904002765
557.1	56.8956572609	50.4866748725
557.4	56.7979980305	50.4866748725
557.7	56.7461165643	50.4866748725
558	56.2822352199	50.4866748725
558.3	56.7308573096	50.0955074535
558.6	56.7400128624	50.0880566456
558.9	56.0899686101	50.0880566456
559.2	56.7339091605	49.6968892266
559.5	56.7369610115	49.6894384186
559.8	56.7125462039	49.6894384186
560.1	56.7339091605	49.6857130146
560.4	56.2822352199	49.6857130146
560.7	56.7308573096	49.3019964037
561	56.7400128624	49.1418040321
561.3	56.0899686101	48.9033781767
561.6	56.6484573339	48.8996527727
561.9	56.6484573339	48.8959273688
562.2	56.6118351225	48.5159361618
562.5	56.5538499545	48.4563296979
562.8	56.0899686101	48.1173179348
563.1	56.4378796184	48.1135925309
563.4	56.4470351712	48.1135925309
563.7	55.7969909189	47.8006585957
564	56.4409314693	47.4020403688
564.3	56.4470351712	47.331257693
564.6	56.4165166617	47.2679258251
564.9	56.4470351712	46.940090274
565.2	55.9892575287	46.93636487
565.5	56.4378796184	46.93636487
565.8	56.4470351712	46.6197055309
566.1	55.7969909189	46.556373663
566.4	56.4409314693	46.5489228551
566.7	56.4470351712	46.1726570521
567	56.4165166617	46.1689316481
567.3	56.4470351712	46.1652062441
567.6	55.9831538268	46.1652062441
567.9	56.4378796184	46.1652062441
568.2	56.4470351712	46.1652062441
568.5	55.6993316885	46.1652062441
568.8	56.340220388	46.1652062441
569.1	56.3493759408	45.9156041768
569.4	56.2822352199	45.9156041768
569.7	56.2608722633	46.1577554361
570	55.787835366	46.1093251842
570.3	56.2456130085	46.0795219523
570.6	56.1601611819	45.7926658451
570.9	55.5009613767	45.7852150371
571.2	56.1418500762	45.7852150371
571.5	56.1510056291	45.7852150371
571.8	56.1235389705	45.7852150371
572.1	56.1510056291	45.7852150371
572.4	55.6535539242	45.7852150371
572.7	56.0441908458	45.7852150371
573	56.0533463987	45.7852150371
573.3	55.4063539973	45.5281621618
573.6	56.0472426968	45.6361988775
573.9	56.0258797401	45.5244367578
574.2	55.9221168078	45.4089492341
574.5	55.9556871683	45.3940476182
574.8	55.4948576748	45.6958053413
575.1	55.9434797645	45.7740388251
575.4	55.9556871683	45.7293339773
575.7	55.299539214	45.4722811019
576	55.8671834907	45.4722811019
576.3	55.8610797888	45.7703134211
576.6	55.8275094284	45.6361988775
576.9	55.8305612793	45.7703134211
577.2	55.299539214	45.7777642291
577.5	55.7512131546	45.7777642291
577.8	55.7634205584	45.7777642291
578.1	55.1103244551	45.7777642291
578.4	55.7603687075	45.7777642291
578.7	55.7634205584	46.1503046281
579	55.7329020489	46.1577554361
579.3	55.7603687075	46.1577554361
579.6	55.299539214	46.1577554361
579.9	55.7329020489	46.1577554361
580.2	55.6718650299	46.1577554361
580.5	55.0126652247	46.1577554361
580.8	55.6566057752	46.1093251842
581.1	55.5742057995	45.9156041768
581.4	55.5375835881	46.1503046281
581.7	55.5650502467	46.0795219523
582	55.0126652247	46.1577554361
582.3	55.4643391653	45.8597231169
582.6	55.4704428672	45.7889404411
582.9	54.8173467639	45.7852150371
583.2	55.4643391653	45.6958053413
583.5	55.4704428672	45.4722811019
583.8	55.4399243577	45.3940476182
584.1	55.3788873387	45.3940476182
584.4	54.9150059943	45.3903222142
584.7	55.360576233	45.0140564112
585	55.3697317859	45.088564491
585.3	54.7257912354	45.0103310072
585.6	55.363628084	45.081113683
585.9	55.3697317859	45.3195395384
586.2	55.3422651273	45.2971871144
586.5	55.3697317859	45.0140564112
586.8	54.9150059943	45.0066056032
587.1	55.360576233	45.0066056032
587.4	55.3697317859	45.0066056032
587.7	54.7257912354	44.9209213114
588	55.2873318102	44.9954293912
588.3	55.2812281083	44.9507245433
588.6	55.0981170513	44.6191635882
588.9	55.1011689023	44.6191635882
589.2	54.5762505389	44.6191635882
589.5	55.0218207776	44.6154381842
589.8	55.0340281814	44.6154381842
590.1	54.2832728477	44.6154381842
590.4	54.9272133981	44.6154381842
590.7	54.9302652491	44.6154381842
591	54.9058504415	44.5595571244
591.3	54.9333171	44.5521063164
591.6	54.4785913085	44.5297538925
591.9	54.9211096962	44.3658361169
592.2	54.9333171	44.6042619723
592.5	54.2832728477	44.3099550571
592.8	54.9272133981	44.2317215733
593.1	54.8448134225	44.2279961693
593.4	54.8081912111	43.8331033463
593.7	54.8356578696	43.8293779424
594	54.2832728477	43.8293779424
594.3	54.7288430864	43.8293779424
594.6	54.7379986392	43.8778081942
594.9	54.0879543869	43.974668698
595.2	54.7288430864	44.2168199573
595.5	54.7379986392	44.2205453613
595.8	54.7105319807	44.2205453613
596.1	54.7379986392	44.2205453613
596.4	54.2832728477	44.5297538925
596.7	54.7288430864	44.6042619723
597	54.6494949617	44.5297538925
597.3	53.9963988584	44.5297538925
597.6	54.5487838803	44.6079873763
597.9	54.5487838803	44.3099550571
598.2	54.5121616689	44.5372047005
598.5	54.5426801784	44.4738728326
598.8	54.0879543869	44.2317215733
599.1	54.5335246256	44.2279961693
599.4	54.5426801784	44.2279961693
599.7	53.898739628	44.2279961693
600	54.4541765009	43.8368287503
600.3	54.448072799	43.8293779424
600.6	54.4175542895	43.8293779424
600.9	54.4145024385	43.8293779424
601.2	53.8926359261	43.8293779424
601.5	54.3382061648	43.4456613314
601.8	54.3504135686	43.7138904187
602.1	53.6057619368	43.6840871867
602.4	54.2497024872	43.6840871867
602.7	54.2527543382	43.4419359274
603	54.2222358287	43.8144763264
603.3	54.2527543382	43.4456613314
603.6	53.8010803976	43.4382105234
603.9	54.2222358287	43.7474190546
604.2	54.1642506606	43.7474190546
604.5	53.5081027064	43.8182017304
604.8	54.1489914059	43.8219271344
605.1	54.0696432812	43.8219271344
605.4	54.0269173679	43.8219271344
605.7	54.0604877283	44.0827054137
606	53.5081027064	44.2130945533
606.3	53.9536729451	44.2205453613
606.6	53.9628284979	44.2205453613
606.9	53.3127842456	44.2205453613
607.2	53.9536729451	44.5409301044
607.5	53.9628284979	44.3658361169
607.8	53.9353618394	44.3658361169
608.1	53.8743248204	44.6079873763
608.4	53.4043397741	44.6117127803
608.7	53.8560137147	44.6117127803
609	53.77666559	44.6117127803
609.3	53.1174657848	44.6117127803
609.6	53.7583544843	44.6117127803
609.9	53.7339396767	44.6117127803
610.2	53.6393322972	44.6117127803
610.5	53.6637471048	44.9917039872
610.8	53.2151250152	44.9991547952
611.1	53.6606952539	45.0513104511
611.4	53.6667989558	45.3865968102
611.7	53.0198065544	45.3865968102
612	53.5355693649	45.3865968102
612.3	53.5264138121	45.3865968102
612.6	53.4928434516	45.6361988775
612.9	53.4928434516	45.7703134211
613.2	52.9679250882	45.7777642291
613.5	53.4134953269	45.7777642291
613.8	53.4195990288	46.0795219523
614.1	52.674947397	46.0795219523
614.4	53.3219397984	46.1577554361
614.7	53.3249916494	46.1614808401
615	53.2944731399	46.1614808401
615.3	53.3249916494	46.1614808401
615.6	52.8672140069	46.1614808401
615.9	53.2944731399	46.1130505882
616.2	53.2334361209	45.7889404411
616.5	52.5833918685	45.7852150371
616.8	53.2212287171	45.7852150371
617.1	53.1357768905	45.4089492341
617.4	53.0991546791	45.4014984261
617.7	53.1266213376	45.3977730221
618	52.5772881666	45.3977730221
618.3	53.0198065544	45.1444455508
618.6	53.0289621072	45.3865968102
618.9	52.3819697058	45.092289895
619.2	53.0228584053	45.088564491
619.5	53.0289621072	45.0103310072
619.8	53.0075991506	45.0066056032
620.1	52.7451399689	45.0066056032
620.4	52.1652882884	45.0066056032
620.7	52.4399548739	45.0066056032
621	52.2629475188	44.693671668
621.3	51.6067995645	44.6191635882
621.6	52.064577207	44.6154381842
621.9	52.064577207	44.6154381842
622.2	52.0310068466	44.6154381842
622.5	52.0523698032	44.6154381842
622.8	51.6037477136	44.6154381842
623.1	52.0432142504	44.6154381842
623.4	52.0554216542	44.6154381842
623.7	51.4114811037	44.6154381842
624	52.1469771827	44.6154381842
624.3	52.1530808846	44.6154381842
624.6	52.2263253074	44.3099550571
624.9	52.250740115	44.2242707653
625.2	51.7990661744	44.2242707653
625.5	52.2446364131	44.2242707653
625.8	52.250740115	44.2242707653
626.1	51.5091403341	44.2242707653
626.4	52.1500290336	44.2242707653
626.7	52.1530808846	43.952316274
627	52.1225623751	44.2168199573
627.3	52.1530808846	43.8368287503
627.6	51.701406944	44.1460372815
627.9	52.1469771827	44.1721151094
628.2	52.1530808846	44.2019183414
628.5	51.6067995645	44.2168199573
628.8	52.247688264	44.2168199573
629.1	52.3453474944	44.2168199573
629.4	52.3636586001	44.2168199573
629.7	52.4460585758	44.2168199573
630	51.9943846352	44.2205453613
630.3	52.4430067248	44.2205453613
630.6	52.4460585758	44.2205453613
630.9	51.8021180253	44.6005365683
631.2	52.4430067248	44.6079873763
631.5	52.4460585758	44.6079873763
631.8	52.4216437682	44.6079873763
632.1	52.3606067492	44.6079873763
632.4	51.8997772557	44.6079873763
632.7	52.3422956435	44.6079873763
633	52.2629475188	44.6079873763
633.3	51.6129032664	44.6079873763
633.6	52.1622364374	44.6079873763
633.9	52.128666077	44.6079873763
634.2	52.0310068466	44.6079873763
634.5	51.9760735295	44.6079873763
634.8	51.5060884832	44.6079873763
635.1	51.9516587219	44.6079873763
635.4	51.9638661257	44.6675938401
635.7	51.3138218733	44.9954293912
636	51.8295846839	44.9991547952
636.3	51.823480982	44.9991547952
636.6	51.7838069196	44.9991547952
636.9	51.7899106215	44.9991547952
637.2	51.2649922581	44.9991547952
637.5	51.7105624968	44.9507245433
637.8	51.7166661987	44.6191635882
638.1	50.9750664179	44.6191635882
638.4	51.6159551174	44.6154381842
638.7	51.6190069683	44.6154381842
639	51.5945921607	44.6154381842
639.3	51.6190069683	44.3099550571
639.6	51.1673330277	44.2317215733
639.9	51.6067995645	43.9113368301
640.2	51.6190069683	43.8331033463
640.5	50.9720145669	43.7809476905
640.8	51.6159551174	43.4419359274
641.1	51.5305032908	43.4382105234
641.4	51.4969329303	43.3823294636
641.7	51.5213477379	43.0507685084
642	50.9720145669	43.0470431045
642.3	51.4175848056	42.7303837653
642.6	51.4236885075	42.5999946257
642.9	50.7797479571	42.2423558426
643.2	51.4206366566	42.111966703
643.5	51.4236885075	41.8623646356
643.8	51.3992736999	41.8623646356
644.1	51.33518483	41.4749226207
644.4	50.8774071875	41.4674718127
644.7	51.3138218733	41.4674718127
645	51.2405774505	41.4674718127
645.3	50.5844294963	41.4674718127
645.6	51.2222663448	41.4637464087
645.9	51.2314218977	41.4637464087
646.2	51.1978515372	41.4637464087
646.5	51.2314218977	41.4637464087
646.8	50.7766961061	41.4637464087
647.1	51.2222663448	41.4637464087
647.4	51.2314218977	41.4637464087
647.7	50.5844294963	41.4637464087
648	51.1581774749	41.713348476
648.3	51.152073773	41.4711972167
648.6	51.1154515616	41.713348476
648.9	51.1154515616	41.7766803439
649.2	50.5935850491	41.8549138277
649.5	51.0330515859	41.9182456955
649.8	51.0452589897	41.9964791793
650.1	50.3036592089	42.2460812466
650.4	50.9445479084	42.2498066506
650.7	50.9475997593	42.5031341219
651	50.9170812498	42.5664659897
651.3	50.9475997593	42.6446994735
651.6	50.4959258187	42.6968551294
651.9	50.9445479084	42.6633264935
652.2	50.9506516103	42.6968551294
652.5	50.3036592089	43.0358668925
652.8	50.9445479084	43.0395922965
653.1	50.8560442308	43.0395922965
653.4	50.8224738704	43.0395922965
653.7	50.8499405289	43.0395922965
654	50.3036592089	43.0395922965
654.3	50.7492294476	43.0395922965
654.6	50.7553331495	43.0395922965
654.9	50.111392599	43.0395922965
655.2	50.7492294476	43.0395922965
655.5	50.7522812985	43.0395922965
655.8	50.72481464	43.0395922965
656.1	50.663777621	43.0395922965
656.4	50.2059999785	43.0395922965
656.7	50.6515702172	43.0395922965
657	50.5661183906	43.0395922965
657.3	49.9160741382	43.0395922965
657.6	50.5478072849	43.0395922965
657.9	50.5569628377	43.0395922965
658.2	50.5294961792	43.0395922965
658.5	50.5569628377	43.0395922965
658.8	50.111392599	43.0395922965
659.1	50.5478072849	43.0395922965
659.4	50.5569628377	43.0395922965
659.7	49.9221778401	43.0395922965
660	50.477614713	43.0395922965
660.3	50.4715110111	43.0395922965
660.6	50.4318369488	43.0395922965
660.9	50.4379406507	43.0395922965
661.2	49.9160741382	43.0395922965
661.5	50.233466637	43.0395922965
661.8	50.2304147861	43.0395922965
662.1	49.5834223847	43.0395922965
662.4	50.2182073823	42.6558756855
662.7	50.2212592332	42.6521502815
663	50.1876888728	42.6521502815
663.3	50.2212592332	42.6521502815
663.6	49.7665334417	42.6521502815
663.9	50.1968444256	42.3317655384
664.2	50.1327555557	42.2609828626
664.5	49.4857631543	42.2572574586
664.8	50.1205481519	42.2572574586
665.1	50.0350963253	42.1566715508
665.4	49.9588000515	41.8623646356
665.7	49.9404889458	41.9405981194
666	49.3881039239	41.9070694835
666.3	49.8245186097	41.8735408476
666.6	49.8306223116	41.8660900396
666.9	49.1927854631	41.8623646356
667.2	49.8275704607	41.6053117603
667.5	49.8306223116	41.8549138277
667.8	49.806207504	41.8549138277
668.1	49.8275704607	41.5494307005
668.4	49.3881039239	41.4711972167
668.7	49.8245186097	41.713348476
669	49.8306223116	41.4711972167
669.3	49.195837314	41.4674718127
669.6	49.8275704607	41.4674718127
669.9	49.8001038021	41.4674718127
670.2	49.7024445717	41.4674718127
670.5	49.7329630812	41.5494307005
670.8	49.2904446935	41.5159020646
671.1	49.7299112303	41.713348476
671.4	49.7390667831	41.5531561045
671.7	49.1042817855	41.8511884237
672	49.6505631056	41.6053117603
672.3	49.6444594037	41.8549138277
672.6	49.5132298128	41.8586392316
672.9	49.5162816638	41.8586392316
673.2	48.9974670023	41.8586392316
673.5	49.4369335391	41.8586392316
673.8	49.4460890919	41.8586392316
674.1	48.8143559453	41.8586392316
674.4	49.4460890919	41.8586392316
674.7	49.4491409429	41.8586392316
675	49.4155705824	41.8586392316
675.3	49.4460890919	41.8586392316
675.6	49.0005188532	41.8586392316
675.9	49.4186224334	41.8586392316
676.2	49.3606372653	41.8586392316
676.5	48.7136448639	41.9070694835
676.8	49.3453780106	42.2460812466
677.1	49.3484298615	42.2013763987
677.4	49.317911352	42.1790239748
677.7	49.3453780106	42.2423558426
678	48.8052003924	41.9405981194
678.3	49.2477187802	42.111966703
678.6	49.2507706311	42.111966703
678.9	48.6190374845	42.2423558426
679.2	49.2507706311	42.2498066506
679.5	49.2507706311	42.2498066506
679.8	49.2202521216	42.2498066506
680.1	49.1592151026	42.2498066506
680.4	48.7044893111	42.2498066506
680.7	49.1470076988	42.2498066506
681	49.0676595741	42.2498066506
681.3	48.4206671727	42.3056877104
681.6	48.9669484928	42.6446994735
681.9	48.9272744304	42.6484248775
682.2	48.8296152	42.6484248775
682.5	48.8570818586	42.6484248775
682.8	48.4206671727	42.6484248775
683.1	48.8479263057	42.6484248775
683.4	48.8570818586	42.6484248775
683.7	48.2253487119	42.6484248775
684	48.7746818829	42.6484248775
684.3	48.768578181	42.8943015409
684.6	48.7319559696	43.0321414885
684.9	48.7624744791	43.0395922965
685.2	48.3199560914	43.0395922965
685.5	48.7563707772	43.0395922965
685.8	48.7624744791	43.0395922965
686.1	48.1337931834	43.0395922965
686.4	48.7624744791	43.0395922965
686.7	48.7624744791	43.0433177005
687	48.7289041187	43.0433177005
687.3	48.7594226282	43.0433177005
687.6	48.3199560914	43.0433177005
687.9	48.7136448639	43.0433177005
688.2	48.6190374845	43.0433177005
688.5	47.9842524869	43.0433177005
688.8	48.6098819316	43.0433177005
689.1	48.524430105	43.4233089074
689.4	48.4847560427	43.4307597154
689.7	48.5183264031	43.4307597154
690	48.0727561644	43.4307597154
690.3	48.5152745522	43.4307597154
690.6	48.5183264031	43.4307597154
690.9	47.8865932565	43.4307597154
691.2	48.5122227012	43.4791899673
691.5	48.5183264031	43.4456613314
691.8	48.4847560427	43.4382105234
692.1	48.4237190237	43.8144763264
692.4	47.975096934	43.8182017304
692.7	48.4084597689	43.8182017304
693	48.3321634952	43.8219271344
693.3	47.6912747957	43.8219271344
693.6	48.3169042404	43.8219271344
693.9	48.3230079423	43.8219271344
694.2	48.2894375819	43.8219271344
694.5	48.3230079423	43.8219271344
694.8	47.8774377036	43.8219271344
695.1	48.3108005385	43.8219271344
695.4	48.3169042404	43.8666319823
695.7	47.6912747957	44.2056437453
696	48.2314524138	44.2168199573
696.3	48.2253487119	44.2168199573
696.6	48.1948302024	44.2168199573
696.9	48.1887265005	44.2168199573
697.2	47.6821192428	44.2168199573
697.5	48.039185804	44.2168199573
697.8	48.036133953	44.3993647528
698.1	47.4044008064	44.6042619723
698.4	48.0300302511	44.6079873763
698.7	48.0300302511	44.6079873763
699	47.9995117416	44.6079873763
699.3	48.0300302511	44.6079873763
699.6	47.5905637143	44.6079873763
699.9	48.0025635926	44.6079873763
700.2	47.9384747226	44.3025042491
700.5	47.3006378741	44.6005365683
700.8	47.9262673188	44.6079873763
701.1	47.9262673188	44.6079873763
701.4	47.9018525112	44.6079873763
701.7	47.9262673188	44.6079873763
702	47.3952452535	44.6079873763
702.3	47.8255562375	44.6079873763
702.6	47.8286080884	44.6079873763
702.9	47.2090823456	44.6079873763
703.2	47.8286080884	44.6079873763
703.5	47.8286080884	44.6079873763
703.8	47.8041932808	44.6117127803
704.1	47.7370525599	44.6117127803
704.4	47.2914823212	44.6117127803
704.7	47.7248451561	44.6117127803
705	47.7278970071	44.6117127803
705.3	47.1053194133	44.6117127803
705.6	47.7217933052	44.6117127803
705.9	47.7278970071	44.6117127803
706.2	47.7065340504	44.6117127803
706.5	47.730948858	44.6117127803
706.8	47.2884304703	44.6117127803
707.1	47.7187414542	44.6117127803
707.4	47.7278970071	44.6117127803
707.7	47.1053194133	44.6117127803
708	47.547837801	44.6117127803
708.3	47.5386822482	44.6117127803
708.6	47.4074526573	44.6117127803
708.9	47.4349193159	44.6117127803
709.2	46.99850463	44.6117127803
709.5	47.4318674649	44.6117127803
709.8	47.4349193159	44.6117127803
710.1	46.8092898711	44.6117127803
710.4	47.4349193159	44.6117127803
710.7	47.4349193159	44.6117127803
711	47.4074526573	44.6117127803
711.3	47.4349193159	44.6117127803
711.6	46.9954527791	44.6117127803
711.9	47.4684896763	44.6117127803
712.2	47.5264748444	44.6117127803
712.5	47.0046083319	44.6117127803
712.8	47.6241340748	44.6117127803
713.1	47.6302377767	44.6117127803
713.4	47.6027711181	44.5595571244
713.7	47.6302377767	44.2242707653
714	47.0931120095	44.2242707653
714.3	47.5234229934	44.2242707653
714.6	47.5264748444	44.2242707653
714.9	46.9069491015	44.2242707653
715.2	47.5264748444	44.1721151094
715.5	47.5264748444	43.8331033463
715.8	47.5051118877	43.8293779424
716.1	47.4410230178	43.8293779424
716.4	46.9954527791	43.8293779424
716.7	47.4318674649	43.8293779424
717	47.3433637874	43.7474190546
717.3	46.7116306407	43.8182017304
717.6	47.3311563836	43.5201694112
717.9	47.3311563836	43.4419359274
718.2	47.3097934269	43.4382105234
718.5	47.3311563836	43.4382105234
718.8	46.8916898468	43.4382105234
719.1	47.3281045326	43.4382105234
719.4	47.3311563836	43.4382105234
719.7	46.7055269388	43.3823294636
720	47.3281045326	43.0507685084
720.3	47.3311563836	43.0470431045
720.6	47.3097934269	43.0470431045
720.9	47.3311563836	43.0470431045
721.2	46.8886379958	43.0470431045
721.5	47.3250526817	43.0470431045
721.8	47.3281045326	43.0470431045
722.1	46.6078677084	43.0470431045
722.4	47.2304453022	43.0470431045
722.7	47.2334971532	43.0470431045
723	47.2090823456	43.0470431045
723.3	47.2304453022	43.0470431045
723.6	46.7940306164	43.0470431045
723.9	47.2273934513	43.0470431045
724.2	47.2334971532	43.0470431045
724.5	46.6048158575	43.0470431045
724.8	47.2304453022	42.7192075533
725.1	47.2334971532	43.0358668925
725.4	47.2090823456	42.9911620446
725.7	47.2304453022	42.6596010895
726	46.7940306164	42.6558756855
726.3	47.2273934513	42.6558756855
726.6	47.2304453022	42.6558756855
726.9	46.6048158575	42.6558756855
727.2	47.2304453022	42.6558756855
727.5	47.2334971532	42.6558756855
727.8	47.2090823456	42.6558756855
728.1	47.1388897737	42.6558756855
728.4	46.693319535	42.3392163464
728.7	47.1297342209	42.2609828626
729	47.1327860718	42.3094131144
729.3	46.510208478	42.2684336705
729.6	47.1327860718	42.2609828626
729.9	47.1327860718	42.2609828626
730.2	47.1053194133	42.2609828626
730.5	47.1327860718	42.2609828626
730.8	46.693319535	42.2609828626
731.1	47.1297342209	42.2572574586
731.4	47.1327860718	42.2572574586
731.7	46.5071566271	42.2572574586
732	47.1327860718	42.2572574586
732.3	47.1327860718	42.2572574586
732.6	47.1053194133	42.2572574586
732.9	47.1327860718	42.2572574586
733.2	46.693319535	42.2572574586
733.5	47.1297342209	42.2572574586
733.8	47.1327860718	42.2572574586
734.1	46.3576159305	42.2572574586
734.4	46.9862972262	42.2572574586
734.7	46.9862972262	42.2572574586
735	46.9618824186	42.2572574586
735.3	46.9893490772	42.2572574586
735.6	46.5437788385	42.2572574586
735.9	46.9801935243	42.2572574586
736.2	46.9832453753	42.2572574586
736.5	46.3576159305	42.2572574586
736.8	46.9832453753	42.2572574586
737.1	46.9832453753	42.2572574586
737.4	46.9618824186	42.2572574586
737.7	46.9832453753	42.2572574586
738	46.5437788385	42.2572574586
738.3	46.9801935243	42.2572574586
738.6	46.9832453753	42.2572574586
738.9	46.3576159305	42.2572574586
739.2	46.9801935243	42.2572574586
739.5	46.9832453753	42.2572574586
739.8	46.9618824186	42.2572574586
740.1	46.9832453753	42.2572574586
740.4	46.5407269875	42.2572574586
740.7	46.9771416734	42.2572574586
741	46.9832453753	42.2572574586
741.3	46.3576159305	42.2572574586
741.6	46.9801935243	42.5031341219
741.9	46.9832453753	42.2609828626
742.2	46.9588305677	42.2572574586
742.5	46.9832453753	42.2572574586
742.8	46.5407269875	42.2535320546
743.1	46.9710379715	42.2535320546
743.4	46.9832453753	42.2535320546
743.7	46.3545640796	42.2535320546
744	46.9801935243	42.2535320546
744.3	46.9801935243	42.2535320546
744.6	46.9588305677	42.2535320546
744.9	46.9801935243	42.2535320546
745.2	46.5407269875	42.2535320546
745.5	46.9710379715	42.2535320546
745.8	46.9832453753	42.2535320546
746.1	46.3545640796	42.2535320546
746.4	46.9801935243	42.2535320546
746.7	46.9801935243	42.2535320546
747	46.9588305677	42.2535320546
747.3	46.9801935243	42.2535320546
747.6	46.5346232856	42.2535320546
747.9	46.9527268658	42.2535320546
748.2	46.8916898468	42.2535320546
748.5	46.2508011473	42.2535320546
748.8	46.876430592	42.2535320546
749.1	46.7940306164	42.2535320546
749.4	46.7635121069	42.2535320546
749.7	46.7848750635	42.2535320546
750	46.3393048248	42.2535320546
750.3	46.7818232126	42.2535320546
750.6	46.876430592	42.2535320546
750.9	46.2508011473	42.2535320546
751.2	46.8825342939	42.2013763987
751.5	46.8855861449	41.9443235234
751.8	46.8642231882	41.8698154436
752.1	46.8825342939	41.8660900396
752.4	46.4796899685	41.8660900396
752.7	46.9771416734	41.8623646356
753	46.8977935487	41.8623646356
753.3	46.2508011473	41.8623646356
753.6	46.8825342939	41.8102089798
753.9	46.8855861449	41.4711972167
754.2	46.8642231882	41.4674718127
754.5	46.8825342939	41.4674718127
754.8	46.4430677571	41.4674718127
755.1	46.8733787411	41.4674718127
755.4	46.8855861449	41.4115907528
755.7	46.2508011473	41.0725789898
756	46.8825342939	41.0688535858
756.3	46.8855861449	41.0688535858
756.6	46.8642231882	41.3221810571
756.9	46.8855861449	41.0725789898
757.2	46.4430677571	41.3855129249
757.5	46.879482443	41.3221810571
757.8	46.8855861449	41.3855129249
758.1	46.2569048492	41.4562956007
758.4	46.8855861449	41.3221810571
758.7	46.8886379958	41.4525701967
759	46.8642231882	41.1508124735
759.3	46.8855861449	41.1172838376
759.6	46.4430677571	41.0763043937
759.9	46.8642231882	41.3855129249
760.2	46.8031861692	41.337082673
760.5	46.1592456188	41.1247346456
760.8	46.7879269145	41.4115907528
761.1	46.7940306164	41.0763043937
761.4	46.7726676597	41.3855129249
761.7	46.7879269145	41.4562956007
762	46.3484603777	41.4600210047
762.3	46.7848750635	41.4115907528
762.6	46.7940306164	41.2662999972
762.9	46.1622974697	41.3855129249
763.2	46.7879269145	41.4562956007
763.5	46.7940306164	41.4600210047
763.8	46.7757195107	41.3855129249
764.1	46.7970824673	41.4562956007
764.4	46.3545640796	41.4600210047
764.7	46.7909787654	41.3855129249
765	46.7146824917	41.4562956007
765.3	46.0707419412	41.4600210047
765.6	46.6994232369	41.4600210047
765.9	46.7055269388	41.4600210047
766.2	46.6750084293	41.4115907528
766.5	46.7055269388	41.4451193888
766.8	46.2569048492	41.4562956007
767.1	46.696371386	41.0874806057
767.4	46.7055269388	41.4525701967
767.7	46.0707419412	41.4600210047
768	46.7055269388	41.4600210047
768.3	46.7055269388	41.4600210047
768.6	46.6780602803	41.4600210047
768.9	46.7055269388	41.4600210047
769.2	46.2599567001	41.4600210047
769.5	46.696371386	41.4600210047
769.8	46.7055269388	41.4600210047
770.1	46.0737937922	41.713348476
770.4	46.7055269388	41.5159020646
770.7	46.7085787898	41.8474630197
771	46.6780602803	41.8549138277
771.3	46.7055269388	41.8549138277
771.6	46.266060402	41.8549138277
771.9	46.7024750879	41.8549138277
772.2	46.7085787898	41.8586392316
772.5	46.0737937922	41.8586392316
772.8	46.7055269388	41.8586392316
773.1	46.6231269632	41.8586392316
773.4	46.5804010499	41.8586392316
773.7	46.6109195594	41.8586392316
774	46.1684011716	41.8586392316
774.3	46.6078677084	41.8586392316
774.6	46.6170232613	41.8586392316
774.9	45.9822382637	41.8586392316
775.2	46.6078677084	41.8586392316
775.5	46.6170232613	41.8586392316
